<?xml version="1.0" encoding="utf-8"?>
<!-- Generator: Adobe Illustrator 22.1.0, SVG Export Plug-In . SVG Version: 6.00 Build 0)  -->
<svg version="1.1" id="Calque_1" xmlns="http://www.w3.org/2000/svg" xmlns:xlink="http://www.w3.org/1999/xlink" x="0px" y="0px"
	 viewBox="0 0 1920 88" style="enable-background:new 0 0 1920 88;" xml:space="preserve">
<style type="text/css">
	.st0{fill:#00C9BF;}
	.st1{clip-path:url(#SVGID_2_);}
	.st2{fill:#FFFFFF;}
	.st3{fill:#231F20;}
</style>
<rect x="-2" y="-0.1" class="st0" width="1924.5" height="89.1"/>
<g>
	<defs>
		<rect id="SVGID_1_" x="-0.2" y="-0.6" width="1922.6" height="89.6"/>
	</defs>
	<clipPath id="SVGID_2_">
		<use xlink:href="#SVGID_1_"  style="overflow:visible;"/>
	</clipPath>
	<g class="st1">
		<g>
			<path class="st2" d="M1994,139.6c-5.1,2.9-9,8-13.6,11.7c-5.5,4.4-11.5,9-17.9,12.1c-5.8,2.8-12.1,5-18.2,7
				c-5.4,1.8-11.2,2-16.4,4.7c-9.3,4.7-20.5,11.4-25.5,20.9c-0.9,1.8-2.6,4.5-4.1,7.5c0.2-2.6,0.2-5.3,0.9-7.8
				c1.7-6.3,6.7-11.5,9.6-17.3c5.4-10.7,9-22.6,9.8-34.6c0.9-12.4-1.7-25.1-3.9-37.3c-1.1-6.6-1.2-13.2-2.5-19.8
				c-1.4-7-4-14.4-3.9-21.5c0-2.5-3.3-2.6-3.7-0.2c-1.1,5.9-2.4,10.9-2.5,16.9c0,6-0.8,12-2.7,17.7c-4,11.5-8.3,23.1-9.4,35.3
				c-0.5,5.6-0.8,10.3,0.3,15.9c1.2,6.7,0.8,13.3,0.5,20c-0.1,1.6-0.1,3.3-0.1,4.9c-0.2-0.8-0.4-1.5-0.5-2.3
				c-1.1-6.5-1.7-13.2-3.2-19.6c-0.7-2.7-0.8-5.5-1.6-8.3c-1.1-3.5-1.9-6.7-2-10.3c-0.3-7.3,0.4-14.4,1.6-21.6
				c2.5-14.6,2.9-28.8,1.3-43.6c-0.8-7.2-2.1-14.3-3.8-21.3c-1.2-4.8-0.4-12.7-4.4-16.2c-1-0.9-2.5-0.7-3,0.6
				c-0.9,2.6-0.4,5.4-0.5,8.1c-0.1,3.6-0.4,7.2-0.6,10.8c-0.5,7.5-1.3,14.8-2.7,22.2c-2.3,11.9-3.4,23.8-1,35.8
				c2.7,13.6,8,26.3,11.2,39.8c1.6,6.7,1.7,13.6,3.1,20.3c0.1,0.6,0.3,1.2,0.4,1.8c-1.2-2.8-2.3-5.6-3.3-8.5
				c-0.9-2.9-2.2-5.5-3.7-8.1c-0.5-1-1-1.9-1.6-2.9c-0.1-0.1-0.1-0.2-0.2-0.3c-0.7-1.2-1.4-2.4-2.1-3.7c-2.3-4.1-4.3-8.3-6.9-12.1
				c-0.5-1.5-1-3.1-1.3-4.7c-3.3-14.5,0.7-29.5-2.6-43.9c-3.2-13.8-12.1-25.2-21.5-35.4c-6.1-6.6-12.5-12.7-18.5-19.4
				c-3-3.4-7.1-6.7-9.3-10.7c-1.3-2.4-1.7-5.1-3.8-7c-1.1-1-2.6-0.7-3.2,0.7c-0.9,2-0.6,3.7-0.5,5.7c0.2,3.1,0,6.2,0.1,9.3
				c0,5.9,0.3,12,1.6,17.7c2.8,12.6,9.2,23.7,14.1,35.5c4.5,10.8,10.5,21.8,19.5,29.6c5,4.3,9.7,9.6,13.7,14.9
				c2.6,3.4,5.4,6.7,7.9,10.1c1.2,3.1,2.8,6.1,4.5,9c1.9,3.3,4.5,5.9,6.5,9.1c0.6,1.2,1.2,2.4,1.8,3.6c1,2,1.8,4,2.6,6.1
				c2.4,6.5,4.2,13.4,5.7,19.9c1,4.1,2.8,8,4.1,11.9c0.6,1.8,1.7,4.2,2.5,6.6c-4.7-3.7-9-7.8-13.5-11.7c-1.5-2.1-2.6-4.2-2.8-7.2
				c-0.2-3.2,0.2-6.3-0.5-9.5c-0.6-2.6-1.9-4.9-3-7.3c-5.6-11.8-12.4-24.9-22.7-33.5c-2.7-4-4.8-8.1-6.5-12.6
				c-1.5-4.2-4.1-7.8-6.5-11.6c-4.4-7.1-8.5-14.5-13.8-21c-3.2-3.9-6.6-7.6-10.1-11.2c-3.3-3.5-7.3-6.3-10.6-9.8
				c-6.4-6.8-12.1-13.5-19.3-19.5c-1.3-1.1-3,0.5-2.8,1.9c0.7,5.5,4.4,11.3,6.9,16.2c3.3,6.5,5.9,13.3,9.1,19.9
				c4.9,10.2,11.6,22,20.6,29.6c-1.5-0.6-3.1-1.1-4.7-1.4c-5.8-1.2-12-0.8-17.6-2.7c-2.8-0.9-5.7-1.2-8.6-1.8
				c-2.1-0.4-3.2-1.2-5.3-0.3c-0.8,0.4-1.1,1.2-0.9,2c-0.3,0.6-0.3,1.3,0.3,2c0.5,0.6,1.1,1.2,1.6,1.8c4,4.8,5.7,9.8,7,16.1
				c1.1,5.3,3.4,10.1,5.6,15.1c4.5,10.3,12.9,18,21.2,25.4c3.1,2.8,6.7,4.6,10.5,6.2c-1-0.1-2.1-0.3-3.1-0.5
				c-5.8-1.3-11.6-2.8-17.3-4.5c-3.7-1.2-8.2-2.9-12.1-3c-4.3-0.1-8.6,1.3-12.6,2.9c-5.8,2.4-11.6,4.6-17.7,6.2
				c-4.5,1.2-9.5,1.3-13.8,2.8c-0.8,0.3-1.2,1.3-1,2.1c0.7,3.7,6.3,3.3,9.1,3.6c8.2,0.8,15.6,4.6,22,9.6c12.4,9.6,24.1,18.3,39,23.8
				c11.5,4.2,28.5,5.7,37.7-4c2.5-2.7,3.8-6.1,6.5-8.7c3.6-3.5,7.3-4.6,12.2-4.8c0.6,0,1.2,0,1.8,0c0.1,0,0.2,0.1,0.3,0.1
				c-0.1,0.3,0,0.6,0.3,0.7c6.2,3.8,10.7,8.3,15.9,13.3c0.5,0.5,0.9,0.9,1.4,1.4c0.7,3.1,1.6,6,2.8,9.1c0.3,0.7,0.6,1.4,0.9,2.1
				c0.6,3.3,1,6.6,1.2,10.1c0.4,7,0.3,14.2,1.4,21.1c1.1,7.1,3.4,14.1,6,20.8c2.9,7.5,7,14.5,9,22.3c0.9,3.8,1.2,7.6,1.6,11.5
				c0.4,3.2,1.4,6.3,1.8,9.5c1,7.3,2.9,13.9,5.1,20.9c1.2,3.8,2.2,6.9,2.2,10.9c0,1.9-0.3,3.9,0.6,5.7c0.3,0.6,1.1,1.1,1.9,0.9
				c4.7-1.4,6.7-4.9,9.3-8.7c2.5-3.6,5.8-8.8,4.8-13.6c-0.4-1.8-1.9-2.9-3-4.2c-1.9-2.3-3.7-4.8-5.5-7.2c-2.3-2.9-3-5.9-4.1-9.5
				c-1.1-3.4-2.6-6.6-3.6-10c-3.8-12.5-6-25.6-10.3-38c-1.4-3.9-2.6-7.8-3.8-11.7c0-0.1,0.1-0.2,0.1-0.3c0-2-0.6-3.7-0.9-5.7
				c-0.4-2.6-0.2-5.4-0.7-7.9c-0.1-0.3-0.2-0.6-0.2-0.9c0-0.1,0-0.2,0-0.3c-0.4-1.8-0.7-3.7-0.9-5.7c0.4-1.6,1.2-3,1.3-4.7
				c0.3-3.7-1.1-9.5-2.4-13c-0.1-0.3-0.4-0.9-0.9-1.6c-0.6-2.5-1.5-5-2.8-7.2c1.3-0.4,2.5-0.7,3.7-1.1c3-1,5.6-2.9,8.6-3.7
				c12.9-3.4,27.1,0.8,39-6.3c5.3-3.2,11.8-6,16.3-10.4c2.7-2.6,4.9-5.7,7.4-8.4c2.4-2.5,4.8-5.1,6.7-8.1c3.6-5.5,6.5-12,7.9-18.4
				c0.7-2.9,0.9-5.8,1.2-8.8c0.4-3,2.3-6.1,2.1-9.1C1996.7,140.1,1995.4,138.8,1994,139.6z M1879.9,81c-0.5,6.1-1.9,12-2,18.1
				c-0.1,5.7,0,11.5-0.7,17.2c-0.2,1.7-0.5,3.3-0.7,5c-1.2-4-2.2-8-3-12.1c-2.4-12.5-0.8-24.9,1.6-37.2c1.1-5.9,1.7-12,2.1-18
				c0.2-3,0.4-6.1,0.5-9.1c0.1-1.1,0-2.2,0-3.4c0.1,0.9,0.2,1.8,0.3,2.6c0.5,3.5,1.5,6.8,2.3,10.3c1.5,7.3,2.5,14.9,2.9,22.4
				c0.4,7,0.9,14.1,0.2,21c-0.7,7.3-2.2,14.5-3.2,21.7c-0.4,2.7-0.5,5.3-0.6,7.9c-0.9-4.7,0.4-9.5,0.4-14.2
				c-0.1-10.7,0.1-21.5,0.7-32.2C1880.5,80.6,1879.9,80.6,1879.9,81z M1837.4,102.2c-9.2-12-14.2-26.5-20.4-40.3
				c-3.3-7.3-5.2-15-5.9-22.9c-0.4-3.9-0.5-7.9-0.5-11.8c0-1.4-0.3-3.5-0.5-5.5c0.8,1.8,1.6,3.8,2.7,5.1c3.2,3.8,6.6,7.4,9.9,11.1
				c3.3,3.7,7,6.9,10.2,10.7c2.8,3.3,5.7,6.5,8.5,9.8c6.1,7,11.5,15.5,14.7,24.2c3.4,9.2,2.5,18.1,2.5,27.7c0,1,0,2,0,3
				c-2.3-4.2-4.9-8.2-6.9-12.5c-1-2.1-2.3-4-3.6-5.8c-0.1-1.7-0.1-3.3,0-4.8c0.4-5.2-0.1-9.6-1.3-14.7c-0.1-0.4-0.8-0.3-0.7,0.1
				c0.8,4,1.5,7.8,0.9,11.9c-0.3,1.6-0.6,3.3-0.8,4.9c-1.5-2-2.8-4-3.8-6.3c-2.3-5.5-3.8-12.1-7.8-16.7c-0.6-0.7-1.7,0.2-1.1,1
				c4,5.2,4.3,12.5,7,18.3c0.8,1.6,1.6,3.2,2.6,4.8c-2.4-2.5-5.1-4.7-7.5-7.5c-5.3-6.1-8.5-13.8-13.6-20.1c-0.4-0.5-1,0.1-0.7,0.6
				c4.2,6.2,7.2,13.3,12,19.1c4.8,5.7,9.8,11,14.1,17c0,0,0,0,0,0c0.1,0.6,0.2,1.1,0.3,1.5c-3.6-3.2-8-7.2-12.4-7.6
				c-0.3,0-0.6,0.5-0.4,0.7c0.1,0.1,0.2,0.2,0.3,0.3c0.1,0.1,0.4,0.1,0.4-0.1c-0.1,0.6,6.2,5.2,7.1,6.1c1.9,1.8,3.8,3.6,5.7,5.3
				c2.9,2.6,5.2,5.4,7.5,8.4c0.8,1.8,1.6,3.7,2.3,5.6c0.6,1.6,1,3.2,1.5,4.8c-2.9-3.6-5.6-7.3-8.6-10.7
				C1846.9,111.8,1841.6,107.7,1837.4,102.2z M1895.5,191.8c-0.2-2.3-0.4-4.5-0.6-6.8c0.2-1.2,0.4-2.4,0.7-3.6
				c1.1-1.7,2.2-3.4,3.1-5.3c1.6-3.5,2.3-7.3,3.7-10.9c1.6-4.1,4.9-8.1,7.1-11.9c0.9-1.4,1.8-2.9,2.5-4.4c0.7-1.5,1.2-4.7,2.1-5.9
				c0.2-0.3-0.2-0.6-0.4-0.4c-0.9,0.8-1.2,1.6-1.7,2.7c-1.1,2.6-2.2,4.8-3.7,7.2c-1.9,3-4.5,6.1-6.3,9.3c0.4-1.6,0.8-3.1,1.1-4.7
				c1.1-6.2,2.3-13.5,1.6-19.8c0-0.4-0.7-0.3-0.7,0c-0.2,3.5-1.3,6.8-2,10.3c-0.7,3.3-0.7,6.6-1.5,9.8c-1.3,6-4,11.9-6,17.7
				c-0.2-6.1,0.7-12.2,0.3-18.4c-0.4-6.2-2.2-11.9-1.6-18.2c0.7-6.6,1.1-12.9,3.4-19.2c2.2-6.2,3.9-12.6,6.1-18.8
				c1.9-5.5,2.6-11.1,2.8-17c0.1-2.1,0.2-4.1,0.5-6c0.5,2.1,1,4.1,1.4,6.2c1.5,7,1.9,13.9,2.9,20.9c1.9,13.6,5,26.7,4.2,40.5
				c-0.8,13.1-6.1,26.2-12.8,37.4c-2.2,3.7-4.5,7.3-5.8,11.3C1895.7,193.1,1895.6,192.4,1895.5,191.8z M1903.1,246.8
				c0.2,0.5,0.4,1.1,0.6,1.6c0.4,1.9,0.8,3.9,1.5,5.8c0.5,1.7,1.1,3.7,1.8,5.6c0.7,2.8,1.5,5.7,2.4,8.4c2,6.1,3.9,12,5.6,18.1
				c3.8,13.9,7.8,27.7,12.3,41.4c1.7,5.3,5.8,9.1,9.1,13.5c1.3,1.7,2.1,2.5,2,4.7c-0.1,2.1-1.1,4.7-2.2,6.5
				c-1.8,3.1-4.5,7.5-7.9,9.3c-0.2-2.1,0.6-4.7,0.3-6.8c-0.6-3.7-2.1-7.3-3.1-10.9c-1.1-3.7-2.6-7.5-3.3-11.3
				c-0.7-3.6-0.8-7.2-1.6-10.8c-1.5-7.2-1.5-14.3-3.6-21.4c-2.2-7.5-6.5-14.3-9.2-21.7c-3-8.3-4.8-16.6-5.3-25.4
				c-0.1-2.8-0.2-5.6-0.3-8.5c0.1,0.2,0.2,0.3,0.4,0.4C1902.7,245.9,1902.9,246.4,1903.1,246.8z M1819.6,119.1
				c0.7-0.5-0.1-1.5-0.8-1.2c-0.7,0.3-10.9-14-11.6-15.1c-3.5-5.6-6.8-11.5-9.6-17.5c-2.7-5.8-4.9-11.8-7.8-17.4
				c-1.7-3.3-4.1-7.3-5.8-11.2c2.1,1.9,4.2,3.8,6.2,6c3,3.4,5.8,7.2,9.1,10.3c7.4,7,15.3,13.6,21.2,22.1c4.5,6.6,8.5,13.4,13,20
				c2.7,3.9,4.1,7.8,6,12.1c0.4,0.9,0.9,1.9,1.4,2.8c-2.2-2.9-4.8-5.6-6.9-8.5c-2.4-3.3-5.1-6.7-7.7-9.7c-3.8-4.3-7.2-8.3-10-13.4
				c-2.7-4.9-4.7-8.7-8.8-12.6c-0.5-0.5-1.2,0.2-0.8,0.7c4.1,4.9,6.1,10,9,15.5c2.3,4.4,5.3,7.8,8.5,11.6c3.4,4.1,6.2,8.8,9.5,13.2
				c-2.4-1.2-4.8-2.3-7.1-3.6c-2.3-1.3-4.5-2.6-6.9-3.8C1819.5,119.2,1819.6,119.2,1819.6,119.1z M1868.5,196.8
				c-4.7-1.9-9.7-3.2-14.7-4.1c-7.5-1.3-14.7-4.6-22-5.9c-0.2,0-0.2,0.3-0.1,0.3c5.8,2,11.2,5.3,17.2,7.2c-3.2,0.2-6.4,0.7-9.9,1
				c-1.4,0.1-2.8,0.1-4.2,0c-0.5-0.2-1.1-0.4-1.7-0.7c-3.8-1.7-7.3-3.7-11.1-5.5c-2-1-8.2-5-10.6-3.2c-0.4,0.3,0.1,0.8,0.5,0.7
				c1.1-0.4,3.6,1.6,4.5,2c2.7,1.2,5.3,2.4,7.8,3.9c1.5,0.8,3,1.6,4.6,2.3c-4.8-0.7-9.5-1.8-14.2-2.7c-3.9-0.7-7.7-1.2-11.6-2.3
				c-3.9-1.1-8.7-1.7-12.2-3.8c-0.6-0.4-1.2,0.5-0.6,0.9c5.2,4,13.6,6,19.9,7.4c7.5,1.7,14.7,3.7,22.2,5c2.3,0.4,4.6,0.4,6.9,0.2
				c-0.8,0.3-1.6,0.6-2.3,0.9c-6.7,2.2-13.9,4.1-20.4,6.9c-0.4,0.2-0.1,0.7,0.2,0.6c7.7-0.9,14.9-3.6,22.4-5.8
				c3.3-1,6.5-2.3,9.7-3.1c1.4-0.3,2.7-0.3,4-0.5c0.7,0,1.3,0.1,2,0.2c1.5,0.2,3,0.6,4.4,1c-2.9,0.5-6.2,0.7-8.7,2.3
				c-2.2,1.3-4,3.5-5.9,5.1c-2.5,2.2-5.7,4-7.9,6.3c-0.3,0.3,0.1,0.7,0.4,0.5c0.7-0.5,2.1-0.8,2.9-1.2c3.4-1.9,5.8-5,9.2-7
				c3.4-1.9,5.4-2,9.2-2.4c1.3-0.1,2.6-0.3,3.9-0.5c-5.9,3.6-8,10.8-13.2,15c-6.6,5.3-15.8,4-23.6,3.1
				c-15.1-1.6-29.9-11.6-41.3-21.1c-5.6-4.6-11.2-8.9-18-11.7c-2.9-1.2-5.9-2.3-9-2.6c-0.1,0-0.2,0-0.4,0c1.6-0.2,3.2-0.4,4.7-0.9
				c4.6-1.2,9.1-2.6,13.4-4.4c5-2,9.8-4.8,15.2-5.2c4.6-0.4,10,1.8,14.3,3c4.9,1.4,9.9,2.4,14.8,3.6c4.6,1.1,9.3,1.3,13.8,3
				c3.1,1.1,6.2,2.2,9.4,3.1c0.4,0.2,0.8,0.4,1.3,0.6c9.7,4.4,21.8,5.3,31,10.6c0.4,0.4,0.9,0.8,1.3,1.2
				C1874.1,198.5,1871.1,197.9,1868.5,196.8z M1877.2,201.1c-0.1-0.1-0.1-0.1-0.2-0.2C1877.1,201,1877.1,201,1877.2,201.1
				C1877.2,201.1,1877.2,201.1,1877.2,201.1z M1850.7,186.5c-6.2-2.3-12.1-5.4-18.2-7.9c-5.7-2.4-11.7-4.1-16.4-8.2
				c-4.7-4-9.5-8.1-13.7-12.6c-4.2-4.5-6.7-9.1-9.2-14.7c-2.3-5.2-3.2-10.4-4.6-15.8c0.7,0.1,1.5-0.5,1.4-1.2
				c0.1,0.1,0.2,0.2,0.3,0.3c4.9,3.9,9.3,8.4,14.3,12.1c5.4,4,11.4,7,16.8,10.9c6,4.3,11.5,9.4,16.6,14.7c-2.4-1.5-4.7-3-7.3-4.1
				c-6.6-2.9-13.7-6.7-21-7.5c-0.4,0-0.5,0.6-0.1,0.7c6.3,1.3,12.5,5,18.2,7.8c6.2,3.1,11.9,7.4,17.3,11.7c0.2,0.2,0.5,0.2,0.7,0.2
				c1.3,2.1,2.8,3.9,4.5,5.2c0.2,0.2,0.5,0.2,0.7,0.1c0.4,0.4,0.8,0.7,1.2,1.1c3.3,2.9,6.9,5.2,10.6,7.6c0.6,0.6,1.2,1.1,2,1.6
				c0.3,0.2,0.6,0.2,0.9,0.2c0.7,0.5,1.5,1,2.2,1.4c1.2,0.8,2.3,1.6,3.5,2.4C1864.7,190.1,1857.3,189.1,1850.7,186.5z M1891.6,213.7
				c0,0.1,0,0.1,0,0.2c-0.7-0.7-1.5-1.3-2.3-2c0.7,0.5,1.4,1.1,2.2,1.6C1891.6,213.6,1891.6,213.6,1891.6,213.7z M1870.6,187.6
				c-2.2-1.6-4.4-3-6.6-4.5c-1-1.2-1.9-2.4-2.7-3.7c-1-1.8-1.9-3.7-2.9-5.5c-3.4-5.8-5.6-12.2-7.3-18.6c-0.1-0.2-0.4-0.2-0.4,0.1
				c1,6.7,2.8,13,5.5,19.3c0.6,1.4,1.2,2.8,1.8,4.2c-1-0.8-2-1.5-2.9-2.4c-3.2-2.8-6-6.1-8.9-9.4c-1.5-2.2-2.9-4.4-3.9-6.9
				c-2.4-5.7-4.2-10.9-8.6-15.5c-0.3-0.4-0.8,0.1-0.6,0.5c3.4,4.5,5.3,10.1,7.3,15.4c-0.2-0.2-0.3-0.3-0.5-0.5
				c-9-9.3-19.3-15.9-30-23c-5.4-3.6-9.7-8.4-14.8-12.4c-3.7-2.9-7.5-5.9-11-9.2c-0.1-0.2-0.3-0.4-0.4-0.5c1.1,0.3,2.1,0.6,2.7,0.7
				c2.7,0.5,5.1,1.4,7.7,2.1c4.5,1.3,9.8,0.9,14.5,1.6c6.3,0.9,11.7,4.6,17.2,7.6c5.5,3,11.4,5.2,16.7,8.7
				c12.1,8,19.3,22.1,25.3,34.9c1.5,3.3,3,6.2,3.1,9.9c0.1,2.4-0.2,4.7,0.1,7C1870.7,187.7,1870.6,187.7,1870.6,187.6z M1903,202.7
				c1.3-2.5,2.5-5.2,4.1-7.5c1.5-2.1,3.7-3.7,5.6-5.4c1.4-1.2,2.8-2.3,4.2-3.4c-1.7,1.9-3.2,3.8-4.9,5.6c-2.9,3.2-5.5,7-7.7,10.9
				c-0.1,0.1-0.1,0.1-0.2,0.2c-0.3,0.1-0.5,0.2-0.6,0.5c0,0,0,0,0,0c-0.8,0.7-1.5,1.4-2.1,2.2C1901.9,204.5,1902.6,203.4,1903,202.7
				z M1990.8,150.3c-0.4,3.8-0.7,7.5-1.8,11.2c-2.6,8.6-7.2,15.7-13.3,22.1c-2.5,2.6-4.7,5.8-7.4,8.2c-2.9,2.7-6.8,4.4-10.2,6.3
				c-3.5,2-6.6,4.6-10.6,5.8c-2.9,0.9-6.5,0.8-9.6,1.3c-7.5,1-15.3,0-22.7,1.9c-2.6,0.7-4.9,1.9-7.3,3c-1.9,0.8-3.8,1.2-5.7,1.8
				c1.1-1.7,2.1-3.5,3.6-4.9c3.4-3.4,8.2-6.1,12.6-8.2c0.5-0.1,1-0.1,1.6-0.1c2.3,0,4.6,0.5,6.9,0.9c2.4,0.4,5.6,0.2,7.7,1.4
				c0.2,0.1,0.4-0.1,0.2-0.3c-1.8-1.3-4.1-1.5-6.2-2.1c-2.1-0.6-4.1-1.2-6.3-1.6c8.3-3.5,17.1-6.6,24.3-11.9c0.4-0.3,0-0.9-0.5-0.7
				c-2.1,1.1-4.5,1.6-6.6,2.8c-2.9,1.6-5.6,2.8-8.8,3.8c-5.6,1.8-11,3.9-16.5,6c-1.3,0.5-2.6,1.1-3.9,1.7c1.1-2.2,2.3-4.3,3.8-6.2
				c2.5-3.1,4.6-6.4,7.1-9.5c1.5-1,3-1.9,4.6-2.8c4.8-2.8,9.6-3.9,15-5.1c9.5-2.2,20.2-6.1,28.4-11.4c4.3-2.8,8.5-5.9,12.5-9
				c3.4-2.6,6.6-6.3,10-9.1C1991.6,147.2,1991,149,1990.8,150.3z"/>
			<path class="st2" d="M1905.9,77.6c0.5,2.1,1,4.1,1.4,6.2c1.5,7,1.9,13.9,2.9,20.9c1.9,13.6,5,26.7,4.2,40.5
				c-0.8,13.1-6.1,26.2-12.8,37.4c-2.2,3.7-4.5,7.3-5.8,11.3c-0.1-0.7-0.2-1.4-0.3-2.1c-0.2-2.3-0.4-4.5-0.6-6.8
				c0.2-1.2,0.4-2.4,0.7-3.6c1.1-1.7,2.2-3.4,3.1-5.3c1.6-3.5,2.3-7.3,3.7-10.9c1.6-4.1,4.9-8.1,7.1-11.9c0.9-1.4,1.8-2.9,2.5-4.4
				c0.7-1.5,1.2-4.7,2.1-5.9c0.2-0.3-0.2-0.6-0.4-0.4c-0.9,0.8-1.2,1.6-1.7,2.7c-1.1,2.6-2.2,4.8-3.7,7.2c-1.9,3-4.5,6.1-6.3,9.3
				c0.4-1.6,0.8-3.1,1.1-4.7c1.1-6.2,2.3-13.5,1.6-19.8c0-0.4-0.7-0.3-0.7,0c-0.2,3.5-1.3,6.8-2,10.3c-0.7,3.3-0.7,6.6-1.5,9.8
				c-1.3,6-4,11.9-6,17.7c-0.2-6.1,0.7-12.2,0.3-18.4c-0.4-6.2-2.2-11.9-1.6-18.2c0.7-6.6,1.1-12.9,3.4-19.2
				c2.2-6.2,3.9-12.6,6.1-18.8c1.9-5.5,2.6-11.1,2.8-17C1905.5,81.5,1905.6,79.5,1905.9,77.6z"/>
			<path class="st2" d="M1877.7,41.5c0.1,0.9,0.2,1.8,0.3,2.6c0.5,3.5,1.5,6.8,2.3,10.3c1.5,7.3,2.5,14.9,2.9,22.4
				c0.4,7,0.9,14.1,0.2,21c-0.7,7.3-2.2,14.5-3.2,21.7c-0.4,2.7-0.5,5.3-0.6,7.9c-0.9-4.7,0.4-9.5,0.4-14.2
				c-0.1-10.7,0.1-21.5,0.7-32.2c0-0.4-0.6-0.5-0.6,0c-0.5,6.1-1.9,12-2,18.1c-0.1,5.7,0,11.5-0.7,17.2c-0.2,1.7-0.5,3.3-0.7,5
				c-1.2-4-2.2-8-3-12.1c-2.4-12.5-0.8-24.9,1.6-37.2c1.1-5.9,1.7-12,2.1-18c0.2-3,0.4-6.1,0.5-9.1
				C1877.7,43.9,1877.7,42.7,1877.7,41.5z"/>
			<path class="st2" d="M1822.8,37.9c3.3,3.7,7,6.9,10.2,10.7c2.8,3.3,5.7,6.5,8.5,9.8c6.1,7,11.5,15.5,14.7,24.2
				c3.4,9.2,2.5,18.1,2.5,27.7c0,1,0,2,0,3c-2.3-4.2-4.9-8.2-6.9-12.5c-1-2.1-2.3-4-3.6-5.8c-0.1-1.7-0.1-3.3,0-4.8
				c0.4-5.2-0.1-9.6-1.3-14.7c-0.1-0.4-0.8-0.3-0.7,0.1c0.8,4,1.5,7.8,0.9,11.9c-0.3,1.6-0.6,3.3-0.8,4.9c-1.5-2-2.8-4-3.8-6.3
				c-2.3-5.5-3.8-12.1-7.8-16.7c-0.6-0.7-1.7,0.2-1.1,1c4,5.2,4.3,12.5,7,18.3c0.8,1.6,1.6,3.2,2.6,4.8c-2.4-2.5-5.1-4.7-7.5-7.5
				c-5.3-6.1-8.5-13.8-13.6-20.1c-0.4-0.5-1,0.1-0.7,0.6c4.2,6.2,7.2,13.3,12,19.1c4.8,5.7,9.8,11,14.1,17c0,0,0,0,0,0
				c0.1,0.6,0.2,1.1,0.3,1.5c-3.6-3.2-8-7.2-12.4-7.6c-0.3,0-0.6,0.5-0.4,0.7c0.1,0.1,0.2,0.2,0.3,0.3c0.1,0.1,0.4,0.1,0.4-0.1
				c-0.1,0.6,6.2,5.2,7.1,6.1c1.9,1.8,3.8,3.6,5.7,5.3c2.9,2.6,5.2,5.4,7.5,8.4c0.8,1.8,1.6,3.7,2.3,5.6c0.6,1.6,1,3.2,1.5,4.8
				c-2.9-3.6-5.6-7.3-8.6-10.7c-4.4-5.1-9.7-9.2-13.9-14.6c-9.2-12-14.2-26.5-20.4-40.3c-3.3-7.3-5.2-15-5.9-22.9
				c-0.4-3.9-0.5-7.9-0.5-11.8c0-1.4-0.3-3.5-0.5-5.5c0.8,1.8,1.6,3.8,2.7,5.1C1816,30.6,1819.5,34.3,1822.8,37.9z"/>
			<path class="st2" d="M1820.4,95.1c4.5,6.6,8.5,13.4,13,20c2.7,3.9,4.1,7.8,6,12.1c0.4,0.9,0.9,1.9,1.4,2.8
				c-2.2-2.9-4.8-5.6-6.9-8.5c-2.4-3.3-5.1-6.7-7.7-9.7c-3.8-4.3-7.2-8.3-10-13.4c-2.7-4.9-4.7-8.7-8.8-12.6
				c-0.5-0.5-1.2,0.2-0.8,0.7c4.1,4.9,6.1,10,9,15.5c2.3,4.4,5.3,7.8,8.5,11.6c3.4,4.1,6.2,8.8,9.5,13.2c-2.4-1.2-4.8-2.3-7.1-3.6
				c-2.3-1.3-4.5-2.6-6.9-3.8c0.1,0,0.1-0.1,0.1-0.1c0.7-0.5-0.1-1.5-0.8-1.2c-0.7,0.3-10.9-14-11.6-15.1
				c-3.5-5.6-6.8-11.5-9.6-17.5c-2.7-5.8-4.9-11.8-7.8-17.4c-1.7-3.3-4.1-7.3-5.8-11.2c2.1,1.9,4.2,3.8,6.2,6
				c3,3.4,5.8,7.2,9.1,10.3C1806.6,80,1814.5,86.6,1820.4,95.1z"/>
		</g>
		<g>
			<path class="st3" d="M2003.2,126.9c-5.1,2.9-9,8-13.6,11.7c-5.5,4.4-11.5,9-17.9,12.1c-5.8,2.8-12.1,5-18.2,7
				c-5.4,1.8-11.2,2-16.4,4.7c-9.3,4.7-20.5,11.4-25.5,20.9c-0.9,1.8-2.6,4.5-4.1,7.5c0.2-2.6,0.2-5.3,0.9-7.8
				c1.7-6.3,6.7-11.5,9.6-17.3c5.4-10.7,9-22.6,9.8-34.6c0.9-12.4-1.7-25.1-3.9-37.3c-1.1-6.6-1.2-13.2-2.5-19.8
				c-1.4-7-4-14.4-3.9-21.5c0-2.5-3.3-2.5-3.7-0.2c-1.1,5.9-2.5,10.9-2.5,16.9c-0.1,6-0.8,12-2.7,17.6c-4,11.5-8.3,23.1-9.4,35.3
				c-0.5,5.6-0.8,10.3,0.3,15.9c1.3,6.7,0.8,13.3,0.5,20c-0.1,1.6-0.1,3.3-0.1,4.9c-0.2-0.8-0.4-1.5-0.5-2.3
				c-1.1-6.5-1.7-13.2-3.2-19.6c-0.6-2.8-0.7-5.6-1.6-8.3c-1.1-3.5-1.9-6.7-2-10.4c-0.3-7.3,0.4-14.4,1.6-21.6
				c2.5-14.6,2.9-28.8,1.3-43.6c-0.8-7.2-2.1-14.3-3.8-21.3c-1.2-4.8-0.4-12.7-4.4-16.2c-1-0.9-2.5-0.7-3,0.6
				c-0.9,2.6-0.4,5.4-0.5,8.1c-0.1,3.6-0.4,7.2-0.6,10.8c-0.5,7.5-1.3,14.8-2.7,22.2c-2.3,11.9-3.4,23.8-1,35.8
				c2.7,13.6,8,26.3,11.2,39.7c1.6,6.7,1.7,13.6,3.1,20.3c0.1,0.6,0.2,1.2,0.4,1.8c-1.2-2.8-2.3-5.6-3.3-8.5
				c-0.9-2.9-2.2-5.5-3.7-8.1c-0.5-1-1-1.9-1.6-2.9c-0.1-0.1-0.1-0.2-0.2-0.3c-0.7-1.2-1.4-2.4-2.1-3.7c-2.3-4.1-4.3-8.3-6.9-12.1
				c-0.5-1.5-1-3.1-1.3-4.7c-3.3-14.5,0.7-29.5-2.6-43.9c-3.2-13.8-12.1-25.2-21.5-35.4c-6.1-6.6-12.5-12.7-18.5-19.4
				c-3-3.4-7.1-6.7-9.3-10.7c-1.3-2.4-1.7-5.1-3.8-7c-1.1-1-2.6-0.7-3.2,0.7c-0.9,2-0.6,3.7-0.5,5.8c0.2,3.1,0,6.2,0.1,9.3
				c0,5.9,0.3,12,1.5,17.7c2.8,12.6,9.2,23.7,14.1,35.5c4.5,10.8,10.5,21.8,19.5,29.6c5,4.3,9.7,9.6,13.7,14.9
				c2.6,3.4,5.4,6.6,7.9,10.1c1.2,3.1,2.8,6.1,4.5,9c1.9,3.3,4.5,5.9,6.5,9.1c0.6,1.2,1.3,2.4,1.8,3.6c0.9,2,1.8,4,2.6,6.1
				c2.4,6.5,4.2,13.4,5.7,19.9c1,4.1,2.8,8,4.1,11.9c0.6,1.8,1.7,4.2,2.5,6.6c-4.7-3.7-9-7.8-13.5-11.7c-1.5-2.1-2.6-4.2-2.8-7.2
				c-0.2-3.2,0.2-6.4-0.5-9.5c-0.6-2.6-1.9-4.9-3-7.3c-5.6-11.8-12.4-24.9-22.7-33.5c-2.7-4-4.8-8.1-6.5-12.6
				c-1.5-4.2-4.1-7.8-6.4-11.6c-4.4-7.2-8.5-14.5-13.8-21c-3.2-3.9-6.6-7.6-10.1-11.2c-3.3-3.5-7.3-6.3-10.6-9.8
				c-6.4-6.8-12.1-13.5-19.3-19.5c-1.3-1.1-3,0.5-2.8,1.9c0.7,5.5,4.4,11.3,6.9,16.2c3.3,6.5,5.9,13.3,9.1,19.9
				c4.9,10.2,11.5,22,20.6,29.6c-1.5-0.6-3.1-1.1-4.7-1.4c-5.8-1.2-12-0.8-17.6-2.7c-2.8-0.9-5.7-1.2-8.6-1.8
				c-2.1-0.4-3.2-1.2-5.3-0.3c-0.8,0.4-1.1,1.2-0.9,2c-0.3,0.6-0.3,1.3,0.3,1.9c0.5,0.6,1.1,1.2,1.6,1.8c4,4.8,5.7,9.8,7,16.1
				c1.1,5.3,3.4,10.1,5.6,15.1c4.5,10.3,12.9,18,21.2,25.4c3.1,2.8,6.7,4.6,10.5,6.2c-1-0.1-2.1-0.3-3.1-0.5
				c-5.8-1.3-11.6-2.8-17.3-4.5c-3.7-1.2-8.2-2.9-12.1-3c-4.3-0.1-8.6,1.3-12.6,2.9c-5.8,2.4-11.6,4.6-17.7,6.2
				c-4.5,1.2-9.5,1.3-13.8,2.8c-0.8,0.3-1.2,1.3-1,2.1c0.7,3.7,6.3,3.3,9.1,3.6c8.2,0.7,15.6,4.6,22,9.6c12.4,9.6,24.1,18.3,39,23.8
				c11.5,4.3,28.6,5.7,37.7-4c2.5-2.7,3.8-6.1,6.5-8.7c3.6-3.5,7.3-4.6,12.2-4.8c0.6,0,1.2,0,1.8,0c0.1,0,0.2,0.1,0.3,0.1
				c-0.1,0.3,0,0.6,0.3,0.7c6.1,3.8,10.7,8.3,15.9,13.4c0.5,0.5,0.9,0.9,1.4,1.4c0.7,3.1,1.6,6,2.8,9.1c0.3,0.7,0.6,1.4,0.9,2.1
				c0.6,3.3,1,6.6,1.2,10.1c0.4,7,0.3,14.2,1.4,21.1c1.1,7.1,3.5,14.1,6,20.8c2.9,7.5,7,14.5,9,22.3c0.9,3.8,1.2,7.6,1.6,11.5
				c0.4,3.2,1.4,6.3,1.8,9.5c1,7.3,2.9,13.9,5.1,20.9c1.2,3.8,2.2,6.9,2.1,10.9c0,1.9-0.3,3.9,0.6,5.7c0.3,0.6,1.1,1.1,1.9,0.9
				c4.7-1.4,6.7-4.9,9.3-8.7c2.5-3.6,5.8-8.8,4.8-13.6c-0.4-1.8-1.9-2.9-3-4.2c-1.9-2.3-3.7-4.8-5.5-7.2c-2.3-2.9-3-5.9-4.1-9.4
				c-1.1-3.4-2.6-6.6-3.6-10c-3.8-12.5-6-25.6-10.3-38c-1.4-3.9-2.6-7.8-3.8-11.7c0-0.1,0.1-0.2,0.1-0.3c0-2-0.6-3.7-0.9-5.7
				c-0.4-2.6-0.2-5.4-0.7-7.8c-0.1-0.3-0.2-0.6-0.2-0.9c0-0.1,0-0.2,0-0.3c-0.4-1.8-0.7-3.7-0.9-5.7c0.4-1.6,1.2-3,1.3-4.7
				c0.3-3.7-1.1-9.5-2.4-13c-0.1-0.3-0.4-0.9-0.9-1.6c-0.6-2.5-1.5-5-2.8-7.2c1.2-0.4,2.5-0.7,3.7-1.1c3-1,5.6-2.9,8.6-3.7
				c12.9-3.4,27.1,0.8,39-6.3c5.3-3.2,11.8-6,16.3-10.4c2.7-2.6,4.9-5.7,7.4-8.4c2.4-2.5,4.8-5.1,6.7-8.1c3.6-5.5,6.5-12,7.9-18.4
				c0.7-2.9,0.9-5.8,1.2-8.8c0.3-3,2.3-6.1,2.1-9.1C2005.9,127.4,2004.6,126.1,2003.2,126.9z M1916.3,182.5c1.5-2.1,3.7-3.7,5.6-5.4
				c1.4-1.2,2.8-2.3,4.2-3.4c-1.7,1.9-3.2,3.8-4.9,5.6c-2.9,3.2-5.5,7-7.7,10.9c-0.1,0.1-0.1,0.1-0.2,0.2c-0.3,0.1-0.5,0.2-0.6,0.5
				c0,0,0,0,0,0c-0.8,0.7-1.5,1.4-2.1,2.2c0.6-1.2,1.2-2.3,1.7-3.1C1913.5,187.5,1914.7,184.7,1916.3,182.5z M1886.4,188.4
				c-0.1-0.1-0.1-0.1-0.2-0.2C1886.3,188.3,1886.4,188.3,1886.4,188.4C1886.4,188.4,1886.4,188.4,1886.4,188.4z M1900.8,200.8
				c0,0.1,0.1,0.1,0.1,0.2c0,0.1,0,0.1,0,0.2c-0.7-0.7-1.5-1.3-2.3-2C1899.3,199.7,1900,200.3,1900.8,200.8z M1904,144.1
				c-0.4-6.2-2.2-11.9-1.6-18.2c0.7-6.6,1.1-12.9,3.4-19.2c2.2-6.2,3.9-12.6,6.1-18.8c1.9-5.5,2.6-11.1,2.8-16.9
				c0.1-2.1,0.2-4.1,0.5-6c0.5,2.1,1,4.1,1.4,6.2c1.5,7,1.9,13.9,2.9,20.9c1.9,13.6,5,26.7,4.2,40.5c-0.8,13.1-6.1,26.2-12.8,37.4
				c-2.2,3.7-4.5,7.3-5.8,11.3c-0.1-0.7-0.2-1.4-0.3-2.1c-0.2-2.3-0.4-4.5-0.6-6.8c0.2-1.2,0.4-2.4,0.6-3.6c1.1-1.7,2.2-3.4,3.1-5.3
				c1.6-3.5,2.3-7.3,3.7-10.9c1.6-4.1,4.9-8.1,7.1-11.9c0.9-1.4,1.8-2.9,2.5-4.4c0.7-1.5,1.2-4.7,2.1-5.9c0.2-0.3-0.2-0.6-0.4-0.4
				c-0.9,0.8-1.2,1.6-1.7,2.7c-1.1,2.6-2.2,4.8-3.7,7.2c-1.9,3-4.5,6.1-6.3,9.3c0.4-1.6,0.8-3.1,1.1-4.7c1.1-6.2,2.3-13.5,1.6-19.8
				c0-0.4-0.7-0.3-0.7,0c-0.2,3.5-1.3,6.8-2,10.3c-0.7,3.3-0.7,6.6-1.5,9.8c-1.3,6-4,11.9-6,17.7
				C1903.5,156.3,1904.4,150.2,1904,144.1z M1882.7,96.5c-2.4-12.5-0.8-24.9,1.6-37.2c1.2-5.9,1.7-12,2.1-18c0.2-3,0.4-6.1,0.5-9.1
				c0.1-1.1,0-2.2,0-3.4c0.1,0.9,0.2,1.8,0.3,2.6c0.5,3.5,1.5,6.8,2.3,10.3c1.5,7.3,2.5,14.9,2.9,22.4c0.4,7,0.9,14,0.2,21
				c-0.7,7.3-2.2,14.5-3.2,21.7c-0.4,2.7-0.5,5.3-0.6,7.9c-0.9-4.7,0.4-9.5,0.4-14.2c-0.1-10.7,0.1-21.5,0.7-32.2
				c0-0.4-0.6-0.5-0.6,0c-0.5,6.1-1.9,12-2,18.1c-0.1,5.7,0,11.5-0.7,17.2c-0.2,1.7-0.5,3.3-0.7,5
				C1884.6,104.6,1883.5,100.6,1882.7,96.5z M1846.7,89.6c-9.2-12-14.2-26.5-20.4-40.3c-3.3-7.3-5.2-15-5.9-22.9
				c-0.4-3.9-0.5-7.9-0.5-11.8c0-1.4-0.3-3.5-0.5-5.5c0.8,1.8,1.6,3.8,2.7,5.1c3.1,3.8,6.6,7.4,9.9,11.1c3.3,3.7,7,6.9,10.2,10.7
				c2.8,3.3,5.7,6.5,8.5,9.8c6.1,7,11.5,15.5,14.7,24.2c3.4,9.2,2.5,18.1,2.5,27.7c0,1,0,2,0,3c-2.3-4.2-4.9-8.2-6.9-12.5
				c-1-2.1-2.3-4-3.6-5.8c-0.1-1.7-0.1-3.3,0-4.8c0.4-5.2-0.1-9.6-1.3-14.7c-0.1-0.4-0.8-0.3-0.7,0.1c0.8,4,1.5,7.8,0.9,11.9
				c-0.3,1.6-0.6,3.3-0.8,4.9c-1.5-2-2.8-4-3.8-6.3c-2.3-5.5-3.8-12.1-7.8-16.7c-0.6-0.7-1.7,0.2-1.1,1c4,5.2,4.3,12.5,7,18.3
				c0.8,1.6,1.6,3.2,2.6,4.8c-2.4-2.5-5.1-4.7-7.5-7.5c-5.3-6.1-8.5-13.8-13.6-20.1c-0.4-0.5-1,0.1-0.7,0.6
				c4.2,6.2,7.2,13.3,12,19.1c4.8,5.7,9.8,11,14.1,17c0,0,0,0,0,0c0.1,0.6,0.2,1.1,0.3,1.5c-3.6-3.2-8-7.2-12.3-7.6
				c-0.3,0-0.6,0.5-0.4,0.7c0.1,0.1,0.2,0.2,0.3,0.3c0.1,0.1,0.3,0.1,0.4-0.1c-0.1,0.6,6.2,5.2,7.1,6.1c1.9,1.8,3.8,3.5,5.8,5.3
				c2.9,2.6,5.2,5.4,7.5,8.4c0.9,1.8,1.6,3.7,2.3,5.6c0.6,1.6,1,3.2,1.5,4.8c-2.9-3.6-5.6-7.3-8.6-10.7
				C1856.1,99.1,1850.8,95,1846.7,89.6z M1828.9,106.4c0.7-0.5-0.1-1.5-0.8-1.2c-0.7,0.3-10.9-14-11.6-15.1
				c-3.5-5.6-6.8-11.5-9.6-17.5c-2.7-5.8-4.9-11.8-7.8-17.4c-1.7-3.3-4.1-7.3-5.8-11.2c2.1,1.9,4.2,3.8,6.2,6
				c3,3.4,5.8,7.2,9.1,10.3c7.4,7,15.3,13.6,21.2,22.1c4.5,6.6,8.5,13.4,13,20c2.7,3.9,4.1,7.8,6,12.1c0.4,0.9,0.9,1.9,1.4,2.8
				c-2.2-2.9-4.8-5.6-6.9-8.5c-2.4-3.3-5.1-6.7-7.7-9.7c-3.8-4.3-7.2-8.3-10-13.4c-2.7-4.9-4.7-8.7-8.8-12.6
				c-0.5-0.5-1.2,0.2-0.8,0.7c4.1,4.9,6.1,10,9,15.5c2.3,4.4,5.3,7.8,8.5,11.6c3.4,4.1,6.2,8.8,9.5,13.2c-2.4-1.2-4.8-2.3-7.1-3.6
				c-2.3-1.3-4.5-2.6-6.9-3.8C1828.8,106.5,1828.8,106.5,1828.9,106.4z M1795.5,103.1c2.7,0.5,5.1,1.4,7.7,2.1
				c4.5,1.3,9.8,0.9,14.5,1.6c6.3,0.9,11.7,4.6,17.2,7.6c5.5,3,11.4,5.2,16.7,8.7c12.1,8,19.3,22.1,25.3,35c1.5,3.3,3,6.2,3.1,9.9
				c0.1,2.4-0.2,4.7,0.1,7c0,0-0.1-0.1-0.1-0.1c-2.2-1.6-4.4-3-6.6-4.5c-1-1.2-1.9-2.4-2.7-3.7c-1-1.8-1.9-3.7-2.9-5.5
				c-3.4-5.8-5.6-12.2-7.3-18.6c-0.1-0.2-0.4-0.2-0.4,0.1c1,6.7,2.8,13,5.5,19.3c0.6,1.4,1.2,2.8,1.8,4.2c-1-0.8-2-1.5-2.9-2.4
				c-3.2-2.8-6-6.1-8.9-9.4c-1.5-2.2-2.9-4.4-3.9-6.9c-2.4-5.7-4.2-10.9-8.6-15.5c-0.3-0.4-0.8,0.1-0.6,0.5
				c3.4,4.5,5.3,10.1,7.3,15.4c-0.2-0.2-0.3-0.3-0.5-0.5c-9-9.3-19.3-15.9-30-23c-5.4-3.6-9.7-8.4-14.8-12.4
				c-3.7-2.9-7.5-5.9-11-9.2c-0.1-0.2-0.3-0.4-0.4-0.5C1793.9,102.6,1794.9,102.9,1795.5,103.1z M1802.3,130.3
				c-2.3-5.2-3.2-10.4-4.6-15.8c0.7,0.1,1.5-0.5,1.4-1.2c0.1,0.1,0.2,0.2,0.3,0.3c4.9,3.9,9.3,8.4,14.3,12.1c5.4,4,11.4,7,16.8,10.9
				c6,4.3,11.5,9.4,16.6,14.7c-2.3-1.5-4.7-3-7.3-4.1c-6.6-2.9-13.7-6.7-21-7.5c-0.4,0-0.5,0.6-0.1,0.7c6.3,1.3,12.5,5,18.2,7.8
				c6.2,3.1,11.9,7.4,17.3,11.7c0.2,0.2,0.5,0.2,0.7,0.2c1.3,2.1,2.8,3.9,4.5,5.2c0.3,0.2,0.5,0.2,0.7,0.1c0.4,0.4,0.8,0.7,1.2,1.1
				c3.3,2.9,6.9,5.2,10.6,7.5c0.6,0.6,1.2,1.1,2,1.6c0.3,0.2,0.6,0.2,0.9,0.2c0.7,0.5,1.5,0.9,2.2,1.4c1.2,0.8,2.3,1.6,3.5,2.4
				c-6.7-2.5-14.1-3.5-20.8-6.1c-6.2-2.3-12.1-5.4-18.2-7.9c-5.7-2.4-11.7-4.1-16.4-8.2c-4.7-4-9.5-8.1-13.7-12.6
				C1807.3,140.5,1804.9,136,1802.3,130.3z M1858.5,205.1c-6.6,5.3-15.8,4-23.6,3.1c-15.1-1.6-29.9-11.6-41.3-21.1
				c-5.6-4.6-11.2-8.9-18-11.7c-2.9-1.2-5.9-2.3-9-2.6c-0.1,0-0.2,0-0.4,0c1.6-0.2,3.2-0.4,4.7-0.8c4.6-1.2,9.1-2.6,13.4-4.4
				c5-2,9.8-4.8,15.2-5.2c4.6-0.4,10,1.8,14.3,3c4.9,1.4,9.9,2.4,14.8,3.6c4.6,1.1,9.3,1.3,13.8,3c3,1.1,6.2,2.2,9.4,3.1
				c0.4,0.2,0.8,0.4,1.3,0.6c9.7,4.4,21.8,5.3,31,10.6c0.4,0.4,0.9,0.8,1.3,1.2c-2.2-1.7-5.2-2.4-7.8-3.5c-4.7-1.9-9.7-3.2-14.7-4.1
				c-7.5-1.3-14.7-4.6-22-5.9c-0.2,0-0.3,0.3-0.1,0.3c5.8,2,11.2,5.3,17.2,7.2c-3.2,0.2-6.4,0.7-9.9,1c-1.4,0.1-2.8,0.1-4.2,0
				c-0.5-0.2-1.1-0.4-1.7-0.7c-3.8-1.7-7.3-3.7-11.1-5.5c-2-1-8.2-5-10.6-3.2c-0.4,0.3,0.1,0.8,0.5,0.7c1.1-0.4,3.6,1.6,4.5,2
				c2.7,1.2,5.3,2.4,7.8,3.9c1.5,0.8,3,1.6,4.6,2.3c-4.8-0.7-9.5-1.8-14.2-2.7c-3.9-0.7-7.7-1.2-11.6-2.3c-3.9-1.1-8.7-1.7-12.2-3.8
				c-0.6-0.4-1.2,0.5-0.6,0.9c5.2,4,13.6,6,19.9,7.5c7.4,1.7,14.7,3.7,22.2,5c2.3,0.4,4.6,0.4,6.9,0.2c-0.8,0.3-1.6,0.6-2.3,0.9
				c-6.7,2.2-13.9,4.1-20.4,6.9c-0.4,0.2-0.1,0.7,0.2,0.6c7.7-0.9,14.9-3.6,22.4-5.8c3.3-1,6.5-2.3,9.7-3.1c1.4-0.3,2.7-0.3,4-0.5
				c0.7,0,1.3,0.1,2,0.2c1.5,0.2,3,0.6,4.4,1c-2.9,0.5-6.2,0.7-8.7,2.3c-2.2,1.4-4,3.5-5.9,5.1c-2.5,2.2-5.7,4-7.9,6.3
				c-0.3,0.3,0.1,0.7,0.4,0.5c0.7-0.5,2.1-0.8,2.9-1.2c3.4-1.9,5.8-5.1,9.2-7c3.4-1.9,5.4-2,9.2-2.4c1.3-0.1,2.6-0.3,3.9-0.5
				C1865.8,193.8,1863.8,201,1858.5,205.1z M1918.6,255.6c2,6.1,3.9,12,5.6,18.1c3.8,13.9,7.8,27.7,12.2,41.4
				c1.7,5.3,5.8,9.1,9.1,13.5c1.3,1.7,2.1,2.5,2,4.7c-0.1,2.1-1,4.7-2.2,6.5c-1.8,3.1-4.5,7.5-7.9,9.3c-0.2-2.1,0.6-4.7,0.3-6.8
				c-0.6-3.7-2.1-7.3-3.1-10.9c-1.1-3.7-2.6-7.5-3.3-11.3c-0.7-3.6-0.8-7.2-1.6-10.8c-1.5-7.2-1.5-14.3-3.6-21.4
				c-2.2-7.5-6.5-14.3-9.2-21.7c-3-8.3-4.8-16.6-5.3-25.4c-0.1-2.8-0.2-5.6-0.3-8.5c0.1,0.1,0.2,0.3,0.4,0.4c0.2,0.5,0.4,1,0.6,1.4
				c0.2,0.5,0.4,1.1,0.6,1.6c0.4,1.9,0.8,3.9,1.5,5.8c0.5,1.7,1.1,3.7,1.8,5.6C1917,250,1917.7,252.8,1918.6,255.6z M2000,137.6
				c-0.4,3.8-0.7,7.5-1.8,11.2c-2.6,8.6-7.2,15.7-13.3,22.1c-2.5,2.6-4.7,5.8-7.4,8.2c-2.9,2.7-6.8,4.4-10.2,6.3
				c-3.5,2-6.6,4.6-10.6,5.8c-2.9,0.9-6.5,0.8-9.6,1.3c-7.5,1-15.3,0-22.7,1.9c-2.6,0.7-4.9,1.9-7.3,3c-1.9,0.8-3.8,1.2-5.7,1.8
				c1-1.7,2.1-3.5,3.6-4.9c3.4-3.4,8.2-6.1,12.6-8.2c0.5-0.1,1.1-0.1,1.6-0.1c2.3,0,4.6,0.5,6.9,0.9c2.4,0.4,5.6,0.2,7.7,1.4
				c0.2,0.1,0.3-0.1,0.2-0.3c-1.8-1.3-4.1-1.5-6.2-2.1c-2.1-0.6-4.1-1.2-6.3-1.6c8.3-3.5,17.1-6.6,24.4-11.9
				c0.4-0.3-0.1-0.9-0.5-0.7c-2.1,1.1-4.5,1.6-6.6,2.8c-2.9,1.6-5.6,2.8-8.8,3.8c-5.6,1.8-11,3.9-16.5,6c-1.3,0.5-2.6,1.1-3.9,1.7
				c1.1-2.2,2.3-4.3,3.8-6.2c2.5-3.1,4.6-6.4,7.1-9.5c1.5-1,3-1.9,4.6-2.8c4.8-2.8,9.6-3.9,15-5.1c9.5-2.2,20.2-6.1,28.4-11.4
				c4.3-2.8,8.5-5.9,12.5-9c3.4-2.6,6.5-6.3,10-9.1C2000.8,134.6,2000.2,136.3,2000,137.6z"/>
		</g>
	</g>
	<g class="st1">
		<path class="st2" d="M55.7,28.4c0.1-1.7,0.1-3.5-0.2-5.2c-1.1-8.9-3.4-17.4-5.1-26.1c0-0.2-0.2-0.5-0.4-0.6
			c-0.4-0.1-0.7-0.2-1.1-0.3C48-4,47.6-2.9,48.3-2.6c2.2,1,1.9,9.2,2.1,11.2c0.4,4.4,0.5,8.8,0.7,13.2c0.2,4.7-1,9.7-1.8,14.6
			c-0.5-4.1-1.3-8.2-1.6-12.4c-0.3-4.9,0.3-9.2-1-14c-1.5-5.4-5-11.1-5.6-16.6c-1.2-12.5,1.9-26.2,3.4-38.7c0.6-5.2,2-10,3.7-14.8
			c0,5,0.2,10,1,15.1c1.6,10.8,6.6,20.7,8.2,31.5c0.9,5.9,1.1,11.7,0.2,17.5c-0.8,5.1-0.5,10-0.9,15.1
			C56.5,22.3,56.2,25.3,55.7,28.4z"/>
		<path class="st2" d="M161.4,47.6c-7.3-0.2-14.6-1.4-21.9-1.6c-9.9-0.2-18.4,3.2-27.8,5.3c-9.4,2.1-19.8,1.8-29.3,1.5
			c-6.5-0.2-11-2.8-17-4.5c-0.7-0.2-1.5-0.4-2.2-0.5c4.3-0.8,8.4-1.4,13-1.3c3.8,0,7.9-0.3,11.7-0.5c3.8-0.3,7.5-2.4,11.3-2.3
			c0.5,0,0.6-0.7,0.1-0.7c-3.3-0.6-5,0.3-8.2,0.7c-4.1,0.5-10.4,0-14.5-0.4c-4.1-0.4-8.1-0.2-12,0.1c1.4-0.9,2.7-1.7,3.9-2.4
			c10.7-5.8,22.1-9.4,34.4-8.1c12,1.3,24.4,5.7,36,9c5.1,1.5,10.2,2.8,15.3,4.1C156.6,46.3,159,46.9,161.4,47.6z"/>
		<path class="st2" d="M149.2-125.5c-0.7,3.8-1.5,7.7-2.9,11.5c-2.4,6.3-4.8,12.6-7.5,18.8c-5.5,12.5-16.6,21-23.5,32.8
			c-3.2,5.6-5.7,11.5-8.9,17C103.1-39.9,99-34.9,96-29.2C92.6-23,89.7-16.5,87-10c-1.7,4.1-3.4,8.6-5.2,12.9
			c0.1-4.8-0.2-9.7-0.6-13.5c-1.2-11.8,0.7-23.1,1.9-34.9c2.1-20.9,10.3-42.7,29.4-53.5c8.5-4.8,16.7-9.4,24.9-14.7
			c3.8-2.5,7.3-5.2,10-8.9C148-123.6,148.6-124.5,149.2-125.5z"/>
		<path class="st2" d="M55.7,25.4c0-0.7-0.1-1.5-0.2-2.2c-0.1-0.7-0.2-1.4-0.3-2.1c-0.5-3.2-1.1-6.3-1.7-9.5c-0.5-2.2-1-4.5-1.5-6.7
			c-0.6-2.6-1.1-5.2-1.6-7.8c0-0.2-0.2-0.5-0.4-0.6c-0.4-0.1-0.7-0.2-1.1-0.3C48-4,47.6-2.9,48.3-2.6c1.9,0.8,1.9,7.3,2,10.2
			c0,0.4,0,0.7,0,1c0.2,2.5,0.4,4.9,0.5,7.4c0.1,1.9,0.2,3.8,0.3,5.8c0,0.3,0,0.7,0,1.1c0,1.5-0.1,3.1-0.3,4.6
			C52.4,26.7,54.1,26,55.7,25.4z M41.2-6.7c-0.2-1.8-0.3-3.6-0.3-5.5c-0.2,2.6-0.5,5.2-0.9,8c-0.2,1.7-0.3,3.3-0.4,5
			c0.1,0.4,0.3,0.9,0.5,1.3c1.8,4.9,2.9,9.7,3.3,14.8c1-1,1.9-2,2.7-3.1c0.4-0.5,0.8-1.1,1.2-1.6c-0.1-0.7-0.3-1.5-0.5-2.2
			C45.3,4.6,41.7-1.1,41.2-6.7z M-34.1,152.4c-0.1,0.1-0.1,0.1-0.2,0.2C-34.2,152.5-34.1,152.4-34.1,152.4c-3.2,0.1-6.4,0.1-9.8,0.2
			c-1.2,1.5-2.4,3.1-3.6,4.7c4.3-0.3,8.5,0,13-0.2c0.8,0,1.6-0.1,2.4-0.2c1.6-1.7,3.3-3.4,5-5.1C-29.5,152-31.8,152.2-34.1,152.4z
			 M-19.9,48.1c0.1-0.8-1.1-0.9-1.2-0.1c-2.1,14.1-7.9,27.6-14.1,40.3c-0.8,1.6-1.6,3.2-2.3,4.8c2.1-2,4.3-4,6.4-6
			C-25.5,74.7-21,61.8-19.9,48.1z M-63.3,117.5c-0.9,3-1.9,6-3,9c1.8-2.5,3.6-5,5.5-7.5c0.2-0.3,0.5-0.6,0.7-1
			c0.7-2.2,1.3-4.4,1.8-6.6c-0.3,0.3-0.6,0.7-0.9,1C-60.6,114.1-61.9,115.8-63.3,117.5z M-78.7,135.4c-0.9,0.9-1.9,1.7-2.9,2.7
			c-0.1,0.2-0.1,0.3-0.2,0.5c0-0.1,0-0.2,0.1-0.4c0.5-2.7,1.1-5.4,1.6-8.1c-1.3,1.4-2.6,2.6-4,3.9c-0.1,0.7-0.2,1.3-0.4,2
			c-0.4,2.2-1.3,4.3-1.8,6.4c0,0.1-0.1,0.3-0.1,0.4c-0.5,2.4-0.5,4.8-0.6,7.2c-0.1,1.3-0.1,2.6-0.3,3.8c-0.2,1.3-0.4,2.7-0.7,4.1
			c0.5-0.6,1-1.2,1.6-1.8c1.5-1.7,3.1-3.5,4.7-5.2c0.2-1.6,0.5-3.2,1.2-4.9c0.7-1.8,1.5-3.6,2.3-5.3c1.1-2.4,2.2-4.9,2.9-7.5
			c0.1-0.4,0.2-0.9,0.3-1.3C-76.2,133.1-77.4,134.3-78.7,135.4z M174,47.8c-2.2-3-7.2-3.3-10.4-4.2c-4.4-1.3-8.9-2.2-13.4-3.3
			c-2-0.5-4-1-6-1.5c-2.7-0.8-5.5-1.6-8.3-2.4c-10-3-20.2-6.1-30.4-7.7c-9.4-1.5-19.2-0.1-28.1,3.3c-0.5,0.2-0.9,0.4-1.3,0.5
			c-1.2,0.5-2.4,1-3.5,1.6c-1.6,0.8-3.2,1.7-4.7,2.6c0.3-0.6,0.5-1.2,0.8-1.7c0.1-0.3,0.3-0.6,0.4-0.8c0.3-0.6,0.6-1.3,0.9-1.9
			c1.8-3.6,3.8-7,5.9-10.4c0.1-0.2,0.3-0.4,0.4-0.6c0.4-0.6,0.8-1.3,1.2-2c0.5-0.7,1-1.4,1.5-2.2c0.7-1,1.3-2,2-3
			c1.2-1.8,2.2-3.8,3.1-5.9c1-1,2.1-2,3-2.8c2.3-2,3.7-3.9,5.7-6.2c5.1-5.8,11.8-10,17.4-15.4c4.7-4.5,8.6-9.8,13.1-14.5
			c5.5-5.8,11.5-11.7,15.4-18.7c7.4-13.4,12.8-27.6,14.7-42.8c0.9-7.8,2.2-15.7,2.1-23.6c0-4.6-0.7-9.1-0.7-13.7
			c0-0.4-0.1-1.3-0.1-2.3c0.2-1.3,0.3-2.6,0.5-3.9c0,0,0.1-0.1,0.1-0.1c0.2-0.1,0.3-0.5,0-0.6c0,0,0,0,0,0l0-0.2
			c0.3-2-2.6-3.3-3.8-1.5c-2.7,4.1-4.4,8.9-7.3,12.9c-3,4.1-7.1,6.7-11.3,9.4c0,0-0.1,0.1-0.1,0.1c-1.8,1.2-3.7,2.4-5.5,3.6
			c-1.5,1-3,2-4.5,3c-1.7,1.1-3.4,2.1-5.2,2.9c-0.4,0.2-0.8,0.4-1.2,0.6c-2.9,1.4-5.9,2.7-8.7,4.5C92.2-91.4,84.1-74.4,80-57.3
			c-0.8,3.4-1.4,6.9-2,10.4c-0.6,3.8-1,7.6-1.5,11.5c-0.3,2.5-0.6,5.1-0.9,7.6c-0.2,1.9-0.4,3.7-0.4,5.6c-0.1,2.1-0.1,4.2-0.1,6.2
			c0.1,5.5,0.5,11,0.8,16.6c0.2,3.8,0.4,7.5-0.5,11.1c-0.2,0.3-0.3,0.7-0.2,1c-0.4,1.4-0.9,2.7-1.7,4c-0.1,0.2-0.2,0.4-0.3,0.6
			c-0.9,1.5-1.9,3-2.9,4.5c-0.7,1.1-1.5,2.1-2.2,3.1c-2.1,2.8-4.8,5.1-7.2,7.8c-0.2,0.2-0.4,0.4-0.6,0.6c-0.4,0.5-1,1.2-1.5,2
			c-0.1,0.1-0.1,0.2-0.2,0.2c0-0.1,0-0.2,0.1-0.2c0.2-0.9,0.4-1.8,0.6-2.8c0.6-2.9,1-5.9,1.4-8.8c0.1-0.5,0.1-1,0.2-1.5
			c0.1-1,0.2-2,0.3-3.1c0.3-4.1,0.3-8.1,0.8-12.2c0.5-3.7,0.9-7,1-10.5c0-1.6,0-3.3-0.2-5.1c-0.2-1.8-0.4-3.5-0.7-5.2
			c-0.8-4.3-2-8.5-3.3-12.6c-1.4-4.7-2.9-9.5-4-14.4c-0.2-1-0.4-2.1-0.6-3.1c-2-12.1-1-24,0.3-36.3c0.3-2.9-4-3.4-4.5-0.5
			c-1.7,11.1-7.3,21.2-8.9,32.4c-0.8,6-1.7,12.1-2.3,18.2c-0.8,6.9-1.3,13.9-1.4,20.8c-0.1,4,0.9,6.7,2.2,10.2
			c0.1,0.4,0.3,0.9,0.5,1.3c1.8,4.9,2.9,9.7,3.3,14.8c0.1,1.2,0.1,2.4,0.2,3.6c0,3.5,0.5,6.9,1,10.2c0.1,0.4,0.1,0.8,0.2,1.2
			c0.2,1.3,0.4,2.6,0.6,4c0,0,0,0,0,0c0,0.1,0.1,0.9,0.1,1.9c0.1,1.3,0.1,3.2,0.2,5.2c0.1,2.7,0.2,5.5,0.2,7.3
			C25.1,70.5,1,87.6-19.5,108c-3.6,3.6-7.1,7.2-10.4,11c-2,2.3-4,4.6-5.9,7c-1,1.3-2,2.6-3,3.9c-1.1,1.5-2.2,3-3.3,4.5
			c-3.8,5.2-7.6,10.3-12.2,15.1c-2.2,2.3-4.4,4.6-6.6,6.9c-3.3,3.5-6.5,7.2-9.4,10.9c-2.5,3.2-4.9,6.9-7,10.6
			c-1.3,2.4-2.6,4.8-3.7,7.2c0.2-1.7,0.4-3.4,0.7-5.1c0.7-4.1,1.9-8.1,4.1-11.8c4.9-7.9,12.7-15.7,19.5-21.9
			c5.6-5.1,10.2-11.4,15-17.4c1.5-1.9,3-3.8,4.5-5.6c0.1-0.1,0.2-0.3,0.3-0.4c4-4.6,8.4-8.4,12.3-12.8c2.1-2.3,4-4.8,5.6-7.7
			c3-5.4,4.9-11.5,6.6-17.6c0.5-1.9,1-3.8,1.5-5.7c0.4-1.6,0.8-3.1,1.2-4.7c0.2-0.7,0.4-1.5,0.6-2.2c0.5-1.7,1-3.5,1.4-5.2
			c2.5-9.1,5-18.3,7.4-27.5C2.5,29.4,1.4,18.5,3.6,8.2c1.3-6.3,3.7-12.8,7-18.3c1.9-3.1,3.9-5.5,4.8-9c0-0.2,0.1-0.3,0.1-0.5
			c0.1-0.4,0-0.7-0.1-1c-0.5-0.9-1.8-1.3-2.7-0.6C5.3-15.3-1.1-7-7.8-0.2c-4,4.1-8.5,8.2-12.4,12.6c-1.9,2.1-3.6,4.4-5,6.7
			c-0.2,0.2-0.3,0.5-0.5,0.7c-5,8.6-9.2,17.8-14,26.6c-3.4,6.3-6.6,12.7-9.3,19.3c0,0,0,0,0,0c-0.5,1.1-0.9,2.2-1.3,3.3
			c0,0,0,0.1-0.1,0.1c-1.1,2.8-2.1,5.7-3,8.6c-2.8,9.1-4.7,18.5-7,27.9c-1,3.9-2,7.8-3.1,11.7c-0.9,3-1.9,6-3,9
			c-0.8,2.1-1.7,4.2-2.6,6.3c0.4-1.4,0.8-2.8,1.1-4.3c0.6-2.5,1.2-4.9,1.7-7.4c0.8-3.6,1.4-7.2,2-10.8c0.4-2.3,0.7-4.7,0.9-7.1
			c0.3-2.8,0.6-5.6,0.8-8.4c0.2-2.6,0.3-5.1,0.4-7.6c0.5-13.9-0.1-27.6-0.7-41.5c-0.1-1.7-0.2-3.4-0.2-5.2c0-0.9,0-1.7,0-2.5
			c0.1-2.1,0.4-4.1,0-6.4c-0.8-5-0.4-9.9-1-14.9c-1.3-10.1,0.3-21,1.4-31.1c2.6-23.5,3.3-46.9,6.8-70.4c0.5-3-4-3.4-4.6-0.5
			c-0.8,3.6-4.4,8.2-6,11.7c-2.1,4.7-3.8,9.5-5,14.4C-74-48.3-74.5-36.6-76-25.6c-1.5,11.4,1.2,23,1.2,34.5
			c0,10.6-1.2,21.1-0.2,31.6c0.7,7.4,1.4,14.6,1.2,21.9c0,2.8-0.2,5.5-0.5,8.4c-0.1,0.2-0.2,0.4-0.3,0.7c-0.2,1.7-0.5,3.3-0.7,5
			c-0.7,3.2-1.6,6.4-2.1,9.5c-0.3,2-0.6,4-0.9,6c0,0,0,0,0,0c-0.3,2-0.7,4-1.1,6c-2.3,10.1-5.7,19.7-9.6,29.2
			c-0.5,1.2-1,2.4-1.5,3.6c-1.1,2.7-2.3,5.3-3.4,8c-1.4,3.3-2.8,6.7-3.9,10.1c-0.9,2.7-1.6,5.4-2,8.2c-0.2,1.2-0.2,2.4-0.2,3.6
			c0.1,1.9,0.5,3.8,1,5.7c0.5,1.9,1.1,3.7,1.8,5.6c0.5,1.4,1,2.8,1.4,4.2c0.1,1.8,0.2,3.6,0.2,5.4c0.1,2.6,0.1,5.3,0.1,7.9
			c0,1.2,0,2.4-0.1,3.6c-0.3,7-1.4,13.9-1.7,20.9c-0.3,9.3-0.4,17-3.5,26c-2.5,7.2-4.4,14-5.7,21.5c-2.5,14.5-5.4,28.8-7.8,43.2
			c-1.5,8.6-2.5,29.3,9.1,32.4c2.8,0.8,5.2-0.4,6-3.2c0.4-1.4-0.1-2.4-0.3-3.7c-0.2-1.4-1-2.5-1.1-4.2c-0.2-2.8,0.5-5.7,0.9-8.5
			c2.1-16.9,5.1-34.2,5.7-51.2c0.3-8.5,4.3-15.1,6.6-23.1c2.2-7.8,3.4-16.6,4.3-24.6c0.1-0.9,0.2-1.7,0.2-2.6
			c0.1-0.1,0.2-0.2,0.4-0.3c3.1-3,4.3-7.1,7.6-10.1c3.3-3,6.4-6.5,9.9-9.3c1.9-0.8,3.3-2,4.7-3.6c7.1-5.2,13.7-9.8,22.9-11.6
			c10.8-2.2,20.7-4.6,31.8-3.9c10.5,0.6,21.2,1.3,31.8,1.1c10-0.2,19.9,0.8,29.4-3.1c8.5-3.5,17.5-7.7,24.3-14
			c9-8.4,17.8-17.6,28.4-24c5.2-3.1,11.6-7.3,18-9.6c4-0.4,7.9-0.5,11.7-1.8c2.2-0.7,1.6-4.4-0.7-4.5c-3.3-0.1-6.4,0.4-9.2,1.3
			c-3,0.2-6,0.3-8.8,0.8c-6,0.9-11.9,1.9-18,2.5c-5.4,0.5-10.7,0.7-16,0.8c-2.4,0-4.8,0.1-7.2,0.1c-2.7,0-5.4,0.1-8.2,0.1
			c-6.8,0.2-13.5,1.8-20.2,2.5c-5.8,0.6-11.4,0.1-17.2,0.2c-11.1,0.3-22.6,1.1-33.5,3.6c-9.6,2.2-18.7,5.6-26,12.3
			c-2.4,2.3-4.8,4.6-7.1,6.9c-0.1,0.1-0.1,0.1-0.2,0.2c0-0.1,0.1-0.1,0.1-0.2c3.3-4.4,6.8-8.7,10.9-12.2c7.2-6,15.7-10.7,24.3-14.4
			c1.8-0.8,3.6-1.6,5.4-2.4c3.5-1.6,7-3.2,10.4-4.8c0,0,0,0,0,0c2.7-1.2,5.3-2.5,8-3.6c15.5-6.7,32.1-11.4,48-17.1
			c7.2-2.6,14.7-5.2,22.3-6.2c8.6-1.1,17.7-2.8,26.3-2c1,0.1,1.2-1.4,0.2-1.6c-15.8-2.7-31.6-0.7-46.8,4
			c-17.1,5.3-34.5,10.7-51.2,17.4c-7,2.8-13.8,6.2-20.8,9.4c-1.4,0.6-2.8,1.2-4.2,1.8c-2.6,1.1-5.2,2.3-7.7,3.6l0,0
			c-5.6,2.9-11,6.3-15.9,10.1c-2.4,1.9-4.5,4.1-6.4,6.4c1.9-3.4,3.8-6.7,6-10c1.1-1.6,2.2-3.1,3.3-4.5c1.5-1.9,3.1-3.7,4.8-5.4
			c4.9-5.1,10.2-9.7,15.3-14.9c0,0,0.1-0.1,0.1-0.1c3.9-4.1,8.1-7.6,12.5-11c4.5-3.5,9.2-6.8,13.9-10.1c10.2-7.4,15-18.2,22.9-27.5
			c2.1-2.5,4.6-4.2,7.1-5.9c4.5,0.6,8.9,1.2,13.3,2.9c4.7,1.8,8.7,2.9,13.8,3c9.1,0.2,19.1,0.1,28.1-1.7c11.7-2.4,21.8-7,34-5.8
			c9.5,0.9,19.2,2.1,28.7,1.6C174.4,51.2,174.9,49,174,47.8z M150.1-111.6c0,2.1,0,3.6-0.1,4.1c-1,9.3-2.5,18.2-4.4,27.3
			c-1.8,8.9-5.6,16.3-9.5,24.4c-4.1,8.6-10.4,15.3-16.9,22.3c-5.7,6.1-10.7,12.7-17.2,18.2C97.7-11.5,93-7.9,89.2-3.5
			c2.8-6,5.4-12.2,8.1-18.3c2.9-6.3,6.5-11.6,10.4-17.3c4-5.9,6.7-12.6,10.1-18.9c6.9-12.5,18.9-21.5,24.6-34.6
			C145.2-98.9,147.7-105.2,150.1-111.6z M81.2-27.2c0.5-6.1,1.3-12.2,1.9-18.4c0-0.3,0.1-0.6,0.1-0.9c0.4-3.9,1.1-7.7,1.9-11.6
			c3.8-16.7,12-32.4,27.4-41c0.1-0.1,0.2-0.1,0.3-0.2c2.6-1.4,5.1-2.9,7.6-4.3c2.1-1.2,4.1-2.4,6.2-3.6c1.9-1.1,3.9-2.3,5.8-3.5
			c1.7-1,3.4-2.1,5-3.2c3.8-2.5,7.3-5.2,10-8.9c0.7-0.9,1.3-1.9,1.8-2.9c-0.7,3.8-1.5,7.7-2.9,11.5c-2.4,6.3-4.8,12.6-7.5,18.8
			c-3.7,8.3-9.8,14.8-15.5,21.7c-2.9,3.5-5.7,7.1-8,11c-2.6,4.5-4.8,9.2-7.2,13.8c-0.6,1.1-1.2,2.2-1.8,3.3
			C103.1-39.9,99-34.9,96-29.2C92.6-23,89.7-16.5,87-10c-1.7,4.1-3.4,8.6-5.2,12.9c0.1-4.8-0.2-9.7-0.6-13.5
			c-0.3-3.4-0.4-6.7-0.3-10.1C80.9-22.8,81-25,81.2-27.2z M-86,191.7c-0.1-0.8-0.1-1.7-0.2-2.5c0.1-1,0.3-2.1,0.4-3.1
			c0,0,0.1,0,0.1,0C-85.8,187.9-85.9,189.8-86,191.7z M-81.7,138.2c0.5-2.7,1.1-5.4,1.6-8.1c0.3-1.9,0.6-3.7,0.8-5.6
			c0.1-1.3,0.3-2.6,0.5-3.9c0.4-2.6,0.7-5.3,1.2-7.9c0.2-1.1,0.4-2.3,0.5-3.4c-0.1,1-0.1,2-0.2,3c-0.1,2.3-0.3,4.6-0.4,6.9
			c-0.2,3.2-0.6,6.4-1.1,9.6c-0.5,2.5-1.1,5-2,7.5c-0.2,0.7-0.5,1.3-0.8,2c-0.1,0.2-0.1,0.3-0.2,0.5
			C-81.7,138.4-81.7,138.3-81.7,138.2z M-85,158.2c0.1,0.7,0.1,1.5,0.1,2.2c0,0.8,0.6,1.3,1.2,1.4c-0.4,1.3-0.8,2.5-1.2,3.8
			c-0.1,0.4-0.3,0.8-0.4,1.1c-0.4,1.3-0.7,2.5-1,3.8c0-0.9,0.1-1.7,0.2-2.6C-86,164.8-85.5,161.5-85,158.2z M-50.8,81.7
			c5.2-17.8,14.6-33.4,22.9-49.8c0.8-1.6,1.7-3.3,2.5-4.9c1.4-2.8,3-5.4,4.7-7.8c4.1-5.6,9.1-10.4,14-15.6c2.6-2.8,5.4-5.5,8.1-8.2
			C0.5-2.1-0.3,0.5-1.4,3c-2.9,6.9-9.9,13.4-11.2,20.8c-0.1,0.4,0.6,0.7,0.8,0.3c3.5-5.8,8.4-10.9,11.8-16.8C0,7.5,0,7.6,0,7.8
			c-2.4,11.1-2.1,22.6-5.3,33.5c-3,10.4-6.2,20.8-9,31.3c-0.2,0.8-0.4,1.5-0.6,2.3c-0.5,1.7-0.9,3.5-1.4,5.2c-0.4,1.3-0.7,2.7-1.1,4
			c-0.7,2.4-1.5,4.7-2.3,7.1c-1.9,5.2-4.3,10.1-7.7,14.6c-3.1,4.1-6.9,7.3-10.5,10.9c-0.5,0.5-1,1.1-1.5,1.6c-2.6,2.9-4.9,6-7.4,9
			c-3.4,4.1-6.5,8.6-10,12.6c-3.2,3.7-7.1,6.6-10.3,10.3c-0.7,0.9-1.5,1.7-2.2,2.5c-0.2,0.3-0.5,0.5-0.7,0.8
			c-3.4,3.8-6.9,7.8-9.6,12.1c0.4-1.8,0.9-3.6,1.5-5.2c0.1-0.3,0.3-0.7,0.4-1c0.2-0.6,0.5-1.2,0.7-1.7c3-6.3,8.3-11.1,12.8-16.3
			c4.7-5.4,8.4-11.4,13.1-16.9c4-4.6,7-9.8,9.4-15.4c0.5-1.2,1-2.3,1.5-3.4c1.1-2.4,2.4-4.8,3.6-7.2c1.5-3,3.1-5.9,4.5-9
			c0.4-0.8,0.7-1.6,1.1-2.4c5.7-12.4,10.1-25.4,11.2-39c0.1-0.8-1.1-0.9-1.2-0.1c-2.1,14.1-7.9,27.6-14.1,40.3
			c-0.8,1.6-1.6,3.2-2.3,4.8c-2,4.2-4,8.4-6.2,12.5c-3.9,7.3-8.2,14.2-13.8,20.2c-4,4.3-6.7,9.6-10.7,14c-0.6,0.6-1.2,1.2-1.7,1.9
			c0.5-0.7,0.9-1.4,1.3-2.2c1.2-2.2,2.3-4.5,3.3-6.7c2.1-4.8,3.8-9.7,5.3-14.7c0.7-2.2,1.3-4.4,1.8-6.6c0.8-3.2,1.6-6.5,2.4-9.8
			C-54.3,94.9-52.7,88.2-50.8,81.7z M-69.7,44.6c-1.3-10.8-0.5-21.9-0.3-32.8c0.2-11.4-2.4-22.9-1.5-34.3
			c0.9-10.9,2.2-22.8,4.4-33.5c1.1-5.3,3-10.5,5.2-15.5c-2,18.9-2.9,37.9-5.1,56.8c-1.1,9.5-1.7,18.7-1.9,28.1
			c-0.2,8.4,1.8,17,1.3,25.4c-0.2,2.9-0.1,5.8,0,8.7c0.1,2.5,0.3,5,0.6,7.5c0.3,4,0.7,8,0.7,12c0,10.6-0.2,20.8-1.3,31.3
			c-0.1,0.7-0.1,1.3-0.2,2c-0.3,2.4-0.5,4.8-0.8,7.2c-0.3,3.4-0.7,6.9-1.3,10.2c0,0.1,0,0.2-0.1,0.4c-0.7,4.2-2.1,8.2-3.5,12.3
			c-0.7,2.1-1.5,4.3-2.1,6.4c-0.2,0.6-0.4,1.3-0.6,1.9c-1,3.2-2,6.4-3,9.6c-0.7,2.1-1.3,4.2-1.9,6.4c-0.3,0.7-0.5,1.4-0.8,2.1
			c0-1.9,0-3.8,0.2-5.7c0.2-1.6,0.5-3.2,1.2-4.9c0.7-1.8,1.5-3.6,2.3-5.3c1.1-2.4,2.2-4.9,2.9-7.5c0.1-0.4,0.2-0.9,0.3-1.3
			c0.8-3.3,1.3-6.6,1.7-9.9c0.3-3.1,0.6-6.1,0.8-9.2c0.2-2.5,0.4-5.1,0.7-7.6c0.1-1.1,0.2-2.2,0.4-3.3c0.7-5,1.9-10.1,1.8-15.2
			c-0.2-4.5-0.6-8,0-12.5c0.7-5,1-10,1-15c0-2.8-0.1-5.6-0.3-8.3C-69.2,48.6-69.4,46.6-69.7,44.6z M-94.2,166.8
			c-0.2-0.1-0.3-0.1-0.5-0.1c-0.6-2-1-3.7-1.1-5.4c-0.2-2.1,0-4.2,0.4-6.9c0.1-0.5,0.2-1,0.2-1.5c0.6-3.5,1.6-6.9,2.9-10.3
			c1.3-3.4,2.7-6.8,4.2-10.2c0.8-1.9,1.6-3.8,2.3-5.6c1-2.6,2-5.2,2.9-7.9c0.3-1,0.7-1.9,1-2.9c-0.1,0.6-0.2,1.3-0.3,1.9
			c-0.4,2.8-0.6,5.6-0.9,8.4c-0.3,2.5-0.5,5.1-1,7.6c-0.1,0.7-0.2,1.3-0.4,2c-0.4,2.2-1.3,4.3-1.8,6.4c0,0.1-0.1,0.3-0.1,0.4
			c-0.5,2.4-0.5,4.8-0.6,7.2c-0.1,1.3-0.1,2.6-0.3,3.8c-0.2,1.3-0.4,2.7-0.7,4.1c-0.6,3.7-1.1,7.4-1.5,11.1
			c-0.2-0.2-0.4-0.3-0.8-0.4c-0.6-0.1-1.1-0.2-1.6-0.3c0-0.1-0.1-0.2-0.2-0.2C-92.9,167.6-93.4,167-94.2,166.8z M-90.1,239.7
			c-1.6,6.7-5.4,12.7-6.7,19.5c-1.3,7.5-1.1,15.5-1.9,23.1c-0.8,7.5-1.6,15-2.5,22.5c-0.8,7.2-3.1,15.2-2.6,22.5c0,0,1.1,4,1.2,4
			c-2.2,5.2-6.4-8.5-6.5-9.1c-1.1-8,0.2-15.1,1.5-22.9c2.2-13.4,4.3-27,7.1-40.4c1.7-8.4,4.8-16.1,6.9-24.4c2-7.8,0.7-15.3,1.3-23.1
			c0.5-7.4,1-14.9,0.7-22.3c0-0.4,0-0.7,0-1.1c0-0.9-0.1-1.8-0.1-2.6c0.2-0.2,0.3-0.4,0.3-0.8c0.1-2.7-0.2-5.5-0.7-8.3
			c-0.2-1.4-0.5-2.8-0.9-4.2c-0.1-0.5-0.3-0.9-0.4-1.4c0.9,0.3,1.8,0.6,2.7,0.7c0.3,0.1,0.6,0,0.8-0.2c-0.1,0.7-0.1,1.3-0.2,2
			c-0.4,4.9-0.6,9.7-0.3,14.6c0.1,1.7,0.2,3.5,0.5,5.2c0.1,0.4,0.1,0.8,0.2,1.2c-0.1,0.4-0.1,0.9-0.2,1.3c-0.1,0.5,0.2,1,0.6,1.2
			c1.2,6.2,3.3,12,2.9,18.8C-86.8,223.5-88.4,232.2-90.1,239.7z M-51,168.2c1.4-1.8,2.8-3.6,4.2-5.5c0,0,0,0,0,0
			c-1.1,1.8-2.2,3.6-3.3,5.3c-0.2,0.3-0.3,0.5-0.5,0.8c-1.9,1.9-3.8,3.8-5.7,5.8C-54.6,172.6-52.8,170.4-51,168.2z M-22.7,147.5
			c8.8-7.6,21.4-10.4,32.7-11.9c11.2-1.5,22.2-1.4,33.4-1.3c9.4,0,18.6-2.1,27.9-2.5c1.8-0.1,3.7-0.1,5.5,0c0.3,0,0.6,0,0.9,0
			c9.7,0.4,19.4-0.4,29-1.6c2.4-0.3,4.9-0.7,7.3-1.1c-0.5,0.3-1,0.6-1.5,0.8c-10,5.2-18.9,12.2-27.3,19.8
			c-3.9,3.6-7.4,7.6-11.7,10.8c-5.4,4.1-11.5,6.9-17.7,9.6c-11.2,5-23.9,3.9-35.9,3.8c-10.9-0.1-21.8-1.8-32.7-1.6
			c-10.3,0.2-21.7,2.9-31.5,6.1c-1.2,0.4-2.4,0.9-3.5,1.4c0.1-0.1,0.3-0.3,0.4-0.4c4.8-4.8,9.4-8.6,16.1-10.4
			c6.4-1.8,12.3-0.9,18.8-1.2c2.1-0.1,4.3-0.5,6.4-0.9c3.7-0.8,7.4-1.8,11.2-2.1c6.5-0.6,13-0.8,19.5-2c10.5-1.8,19.8-5.7,28.1-12.4
			c0.5-0.5-0.1-1.2-0.7-0.9c-2.1,1.4-4.2,2.7-6.3,3.8c0,0,0,0-0.1,0c-9.3,4.8-19.3,6.7-30,7.2c-6.5,0.3-12.8,0.4-19.1,1.7
			c-1.2,0.2-2.3,0.4-3.5,0.6c-5.3,0.7-10.2,0.5-15.8,0.6c-4.6,0.1-8.8,0.9-12.8,2.5c-4.7,1.8-9,4.7-12.9,8.4c-1.5,1.4-3.1,2.7-4.8,4
			c0.7-0.8,1.5-1.6,2.3-2.4c0.5-0.5,0.9-0.9,1.4-1.4c2.5-2.6,5.1-5.2,7.8-7.7c0.1-0.1,0.1-0.1,0.2-0.2c1.8-1.6,3.4-3.3,5.1-5.1
			c1.5-1.6,3-3.2,4.6-4.8c1.6-1.7,3.3-3.4,5-5.1C-25.7,150.2-24.2,148.9-22.7,147.5z M35.7,68.4c-3.5,5-7.2,9.2-12.1,12.9
			c-3.5,2.6-7.2,4.4-10.4,7.2c-3.3,2.9-7,5.2-10.3,7.9c-1.1,0.9-2.2,1.9-3.3,2.9c-2.9,2.7-5.5,5.7-8.3,8.4c-1,1-2.1,2-3.1,3
			c-4,3.7-7.9,7.2-11.5,11.5c-0.5,0.6-1,1.2-1.5,1.8c-0.9,1.2-1.8,2.5-2.7,3.8c-4.9,7.4-8.6,15.9-14.3,22.4c-0.7,0.8-1.3,1.5-2,2.3
			c-1.2,1.5-2.4,3.1-3.6,4.7c-1.6,2.2-3.2,4.4-4.8,6.6c-1.4,1.9-2.8,3.7-4.3,5.6c-0.2,0.3-0.4,0.5-0.6,0.7
			c-6.6,7.9-12.2,16.3-17.9,24.8c-2.2,3.2-4.4,6.3-6.7,9.4c0.9-6.1,1.9-12.1,4.9-17.8c2.3-4.4,4.9-9,7.8-13.3
			c1.5-2.2,3.1-4.2,4.8-6.1c0,0,0.1-0.1,0.1-0.1c2.1-2.4,4.3-4.8,6.4-7.1c2-2.2,4.1-4.4,6.1-6.6c1.1-1.2,2.3-2.4,3.5-3.6
			c4.7-4.9,8.3-10.7,12.3-16.1c1-1.3,2-2.6,3-3.9c1.7-2.1,3.4-4.2,5.2-6.3c2.7-3.2,5.6-6.3,8.5-9.3c4-4.1,8.1-8,12.3-11.9
			C3.1,93,13.8,84.3,24,75.7c5.3-4.4,10.6-8.8,15.7-13.3C38.4,64.4,37,66.5,35.7,68.4z M48.7,31.8c-0.1-1-0.3-2-0.4-3
			c-0.2-1.4-0.3-2.8-0.4-4.2c0-0.2,0-0.4,0-0.6c0-0.7-0.1-1.4-0.1-2.1c-0.1-3.3,0.1-6.4-0.5-9.7c-0.1-0.7-0.3-1.5-0.5-2.2
			c-1.5-5.4-5-11.1-5.6-16.6c-0.2-1.8-0.3-3.6-0.3-5.5c0,0,0,0,0,0c0-1.3,0-2.6,0.1-4c0.4-9.8,2.5-19.8,3.6-29.2
			c0.6-5.2,2-10,3.7-14.8c0,5,0.2,10,1,15.1c0.8,5.2,2.4,10.2,3.9,15.2c1.7,5.3,3.4,10.7,4.3,16.3c0.9,5.9,1.1,11.7,0.2,17.5
			c-0.1,0.5-0.1,0.9-0.2,1.4c-0.5,4.6-0.3,9.1-0.7,13.7c0,0.5-0.1,0.9-0.1,1.4c-0.1,1.6-0.3,3.1-0.5,4.7c-0.1,1-0.3,2.1-0.4,3.1
			c0-1,0.1-2,0-3c0-0.7-0.1-1.5-0.2-2.2c-0.1-0.7-0.2-1.4-0.3-2.1c-0.5-3.2-1.1-6.3-1.7-9.5c-0.5-2.2-1-4.5-1.5-6.7
			c-0.6-2.6-1.1-5.2-1.6-7.8c0-0.2-0.2-0.5-0.4-0.6c-0.4-0.1-0.7-0.2-1.1-0.3C48-4,47.6-2.9,48.3-2.6c1.9,0.8,1.9,7.3,2,10.2
			c0,0.4,0,0.7,0,1c0.2,2.5,0.4,4.9,0.5,7.4c0.1,1.9,0.2,3.8,0.3,5.8c0,0.3,0,0.7,0,1.1c0,1.5-0.1,3.1-0.3,4.6
			c-0.2,1.4-0.4,2.9-0.7,4.3c-0.2,1.2-0.5,2.5-0.7,3.7c-0.1,0.3-0.1,0.6-0.1,0.9c0-0.3-0.1-0.6-0.1-0.9
			C49.1,34.3,48.9,33.1,48.7,31.8z M139.5,46c-9.9-0.2-18.4,3.2-27.8,5.3c-9.4,2.1-19.8,1.8-29.3,1.5c-6.5-0.2-11-2.8-17-4.5
			c-0.7-0.2-1.5-0.4-2.2-0.5c4.3-0.8,8.4-1.4,13-1.3c3.8,0,7.9-0.3,11.7-0.5c3.8-0.3,7.5-2.4,11.3-2.3c0.5,0,0.6-0.7,0.1-0.7
			c-1.7-0.3-3-0.2-4.4,0c-1.2,0.2-2.4,0.5-3.9,0.7c-4.1,0.5-10.4,0-14.5-0.4c-4.1-0.4-8.1-0.2-12,0.1c0.7-0.4,1.3-0.9,1.9-1.3
			c0.7-0.4,1.3-0.8,2-1.2c10.7-5.8,22.1-9.4,34.4-8.1c4.2,0.5,8.5,1.3,12.7,2.3c5.5,1.3,10.9,3,16.2,4.6c2.4,0.7,4.7,1.4,7.1,2.1
			c5.1,1.5,10.2,2.8,15.3,4.1c2.4,0.6,4.9,1.2,7.3,1.8C154.1,47.4,146.8,46.2,139.5,46z"/>
		<path class="st2" d="M0,7.8c-2.4,11.1-2.1,22.6-5.3,33.5C-8.6,52.5-12,63.7-15,74.9c-2.9,10.8-5.7,21.8-12.5,30.9
			c-3.1,4.1-6.9,7.3-10.5,10.9c-3.3,3.3-5.9,7-8.9,10.6c-3.4,4.1-6.5,8.6-10,12.6c-3.2,3.7-7.1,6.6-10.3,10.3
			c-4.3,5-9.1,9.8-12.6,15.5c0.4-1.8,0.9-3.6,1.5-5.2c0.1-0.3,0.3-0.7,0.4-1c0.2-0.6,0.5-1.2,0.7-1.7c3-6.3,8.3-11.1,12.8-16.3
			c4.7-5.4,8.4-11.4,13.1-16.9c4-4.6,7-9.8,9.4-15.4c2.9-6.8,6.5-13,9.7-19.7c6.2-13.1,11.1-26.9,12.3-41.4c0.1-0.8-1.1-0.9-1.2-0.1
			c-2.1,14.1-7.9,27.6-14.1,40.3c-6.4,13.1-12.3,26.8-22.4,37.5c-4,4.3-6.7,9.6-10.7,14c-0.6,0.6-1.2,1.2-1.7,1.9
			c0.5-0.7,0.9-1.4,1.3-2.2c9.9-17.9,12.2-38.4,17.9-57.8c5.7-19.6,16.6-36.5,25.4-54.7c4.5-9.3,11.7-15.9,18.7-23.3
			c2.6-2.8,5.4-5.5,8.1-8.2C0.5-2.1-0.3,0.5-1.4,3c-2.9,6.9-9.9,13.4-11.2,20.8c-0.1,0.4,0.6,0.7,0.8,0.3
			c3.5-5.8,8.4-10.9,11.8-16.8C0,7.5,0,7.6,0,7.8z"/>
		<path class="st3" d="M77.5,32c0-0.1-0.1-0.2-0.3-0.2c-2.9-0.5-4.6,0.1-7.2,0.5c-0.3,0.1-0.7,0.1-1,0.2c-2.3,0.3-5.2,0.3-8.1,0.1
			c-0.5,0-1.1-0.1-1.6-0.1c-1.8-0.1-3.4-0.3-4.8-0.4c-1.5-0.2-2.9-0.2-4.3-0.2c-0.2,1.2-0.5,2.5-0.7,3.7c1.5-0.1,3-0.2,4.6-0.2
			c1.5,0,3,0,4.6-0.1c0,0,0.1,0,0.1,0c2.3-0.1,4.7-0.3,7-0.4c1.1-0.1,2.2-0.3,3.3-0.6c2.3-0.6,4.7-1.5,7-1.7c0.3,0,0.7,0,1,0
			C77.4,32.6,77.6,32.2,77.5,32z M-37.5,93.1c-2,4.2-4,8.4-6.2,12.5c2.3-2.4,4.6-4.8,7-7.1c1.5-3,3.1-5.9,4.5-9
			c0.4-0.8,0.7-1.6,1.1-2.4C-33.3,89.1-35.4,91.1-37.5,93.1z M-66.3,126.5c-0.5,0.7-1,1.4-1.5,2c-2.6,3.4-5.3,6.8-8.4,10
			c-1,3.2-2,6.4-3,9.6c2.9-3.2,5.9-6.4,8.9-9.5c1.8-1.9,3.4-3.9,5-5.9c2.1-4.8,3.8-9.7,5.3-14.7c-0.2,0.3-0.5,0.6-0.7,1
			C-62.7,121.5-64.5,124-66.3,126.5z M-34.1,152.4c0,0.1-0.1,0.1-0.1,0.2C-34.2,152.5-34.1,152.4-34.1,152.4L-34.1,152.4z
			 M-41.9,37.1c0.1-0.8-1.1-0.9-1.2-0.1c-2.1,14.1-7.9,27.6-14.1,40.3c-1.6,3.3-3.2,6.6-4.8,9.9c-1.8,3.7-3.7,7.4-5.7,11
			c-1.3,2.4-2.7,4.7-4.2,6.9c-1.6,2.5-3.4,4.8-5.3,7.1c-0.1,0.1-0.2,0.3-0.4,0.4c-0.6,0.8-1.3,1.5-2,2.2c-0.9,1-1.8,2.1-2.6,3.1
			c-0.4,2.8-0.6,5.6-0.9,8.4c1.5-1.9,2.9-3.9,4.4-5.9c0.4-0.5,0.7-1,1.1-1.5c1.4-1.9,2.8-3.7,4.3-5.5c0.2-0.3,0.5-0.6,0.7-0.9
			c1.4-1.7,2.7-3.5,3.9-5.4c1.8-2.9,3.4-5.9,4.8-9.2c0.5-1.1,1-2.2,1.5-3.3c2.6-5.5,5.6-10.8,8.2-16.3c1.4-3,2.8-6.1,4-9.2
			c0,0,0-0.1,0.1-0.1c0.4-1.1,0.9-2.2,1.3-3.3c0,0,0,0,0,0C-45.3,56.6-42.7,47-41.9,37.1z M-60.2,105.8c-1.4,1.4-2.7,2.9-4,4.5
			c-1.6,2-3.2,4-4.8,6c-0.4,0.4-0.7,0.9-1,1.3c-1.1,1.4-2.3,2.9-3.4,4.3c-1.8,2.3-3.5,4.6-5.4,6.7c-0.5,2.5-1.1,5-2,7.5
			c-0.2,0.7-0.5,1.3-0.8,2c1-0.9,1.9-1.8,2.9-2.7c1.3-1.1,2.5-2.4,3.6-3.6c0.5-0.5,1-1.1,1.5-1.6c2.6-2.9,5-6,7.4-9.1
			c0.9-1.2,1.9-2.4,2.8-3.6c1.4-1.7,2.7-3.4,4.2-5.1c0.3-0.4,0.6-0.7,0.9-1c0.8-3.2,1.6-6.5,2.4-9.8c-1.4,1.4-2.8,2.7-4.2,4.1
			C-60.1,105.7-60.1,105.8-60.2,105.8z M152,36.7c-2.2-2.9-7.2-3.3-10.4-4.2c-6.4-1.9-12.9-3-19.3-4.8c-12.7-3.5-25.6-8-38.7-10
			c-1.5-0.2-3-0.4-4.5-0.5c-1.9-0.1-3.8-0.1-5.7,0c-4.1,0.2-8.1,0.8-12.1,1.9c-1.6,0.4-3.1,0.9-4.6,1.5c-0.5,0.2-1,0.3-1.4,0.5
			c-1.4,0.5-2.7,1.1-4.1,1.8c-0.2,0.1-0.4,0.2-0.6,0.3c-0.9,0.5-1.9,1-2.8,1.5c-0.6,0.4-1.3,0.7-1.9,1.1c0.2-0.6,0.5-1.2,0.8-1.7
			c0.3-0.7,0.7-1.4,1-2.1c1-2,2.1-3.9,3.2-5.9c0.8-1.5,1.7-2.9,2.6-4.4l0.4-0.7c0.6-0.8,1.1-1.7,1.6-2.5c0.7-1,1.3-2,2-3
			C58,4.7,58.5,4,59,3.2c1.2-1.8,2.2-3.8,3.1-5.9c0.3-0.3,0.7-0.6,1-1c0.7-0.7,1.4-1.3,2-1.8c2.3-2,3.7-3.9,5.7-6.2
			c1.4-1.6,2.9-3,4.4-4.4c1.8-1.6,3.7-3.1,5.6-4.7c2.5-2,5.1-4.1,7.4-6.3c4.7-4.6,8.6-9.8,13.1-14.5c2.2-2.4,4.6-4.8,6.8-7.2
			c3.3-3.6,6.3-7.3,8.6-11.5c2.4-4.3,4.6-8.8,6.5-13.3c4-9.4,6.9-19.2,8.2-29.5c0.3-2.5,0.6-5,0.9-7.5c0.2-1.7,0.4-3.4,0.6-5
			c0.4-3.7,0.6-7.4,0.6-11.1c0-4.6-0.7-9.1-0.7-13.7c0-0.4-0.1-1.3-0.1-2.3c0.2-1.3,0.3-2.6,0.5-3.9c0,0,0.1-0.1,0.1-0.1
			c0.2-0.1,0.3-0.5,0-0.6c0,0,0,0,0,0c0-0.1,0-0.1,0-0.2c0.2-2-2.6-3.3-3.8-1.5c-2.7,4.1-4.4,8.9-7.3,12.9
			c-3.1,4.1-7.2,6.8-11.5,9.5c-5,3.1-10,6.9-15.3,9.5c-3.4,1.6-6.7,3.1-9.9,5C70.1-102.4,62-85.4,58-68.3c-1.9,8-2.8,16.2-3.7,24.4
			c-0.2,1.7-0.4,3.4-0.6,5.1c-0.4,3-0.5,6.1-0.5,9.1c0,6.4,0.5,12.8,0.9,19.3c0.2,3.8,0.4,7.5-0.4,11.1c-0.2,0.3-0.3,0.7-0.3,1
			C53,2.8,52.6,3.9,52,4.9c-0.1,0.2-0.3,0.5-0.4,0.7c-0.4,0.7-0.8,1.3-1.2,2c-1,1.5-2.1,3.1-3.1,4.6c-0.4,0.5-0.8,1.1-1.2,1.6
			c-0.8,1.1-1.7,2.1-2.7,3.1c-1.7,1.8-3.5,3.4-5.1,5.3c-0.5,0.6-1.1,1.4-1.7,2.3c1.1-4.4,1.7-9,2.3-13.3c0.5-3.5,0.5-6.9,0.7-10.3
			c0.1-1.7,0.2-3.3,0.4-5c0.4-2.9,0.7-5.4,0.9-8c0,0,0,0,0,0c0.1-1.3,0.1-2.6,0.1-4c0-1.1-0.1-2.3-0.2-3.5
			c-0.4-3.6-1.1-7.1-1.9-10.5c-1.9-7.2-4.5-14.2-6-21.7c-2.8-13.2-1.7-26.1-0.3-39.4c0.3-2.9-4-3.4-4.5-0.5
			c-1.7,11.1-7.3,21.2-8.9,32.4c-1.8,12.8-3.5,25.8-3.7,38.7c0,0.1,0,0.2,0,0.3c0,0.4,0,0.8,0,1.2c0.1,3.8,1.3,6.5,2.6,10.4
			c2.2,6,3.5,12,3.5,18.4c0,5.3,1.1,10.2,1.8,15.4c0.1,0.6,0.5,10.2,0.5,14.4C13.8,49.1,3.1,58-7.7,67c-2.2,1.9-4.5,3.7-6.7,5.6
			c-5.7,4.8-11.3,9.6-16.7,14.5c-2.2,2-4.3,4-6.4,6c-8.1,7.7-15.7,15.9-22.5,24.9c-0.2,0.3-0.5,0.6-0.7,1c-1.9,2.5-3.7,5-5.5,7.5
			c-0.5,0.7-1,1.4-1.5,2c-2.6,3.4-5.3,6.8-8.4,10l0,0c-0.7,0.7-1.3,1.4-2,2.1c-2.9,3.1-5.9,6.2-8.7,9.4c-1.8,2.1-3.6,4.2-5.3,6.3
			c-1.2,1.6-2.4,3.2-3.6,5c-1.1,1.6-2.1,3.3-3.1,5c-1.5,2.6-2.9,5.2-4.1,7.9c0.5-4.7,1.2-9.3,3.1-13.6c0.5-1.1,1-2.2,1.7-3.3
			c0.9-1.5,1.9-2.9,3-4.4c2.6-3.5,5.7-6.9,8.8-10.1c1.6-1.6,3.1-3.1,4.7-4.6c0,0,0.1-0.1,0.1-0.1c1-0.9,1.9-1.8,2.9-2.7
			c1.3-1.1,2.5-2.4,3.6-3.6c0.5-0.5,1-1.1,1.5-1.6c2.6-2.9,5-6,7.4-9.1c0.9-1.2,1.9-2.4,2.8-3.6c1.4-1.7,2.7-3.4,4.2-5.1
			c0.3-0.4,0.6-0.7,0.9-1c6-6.7,12.8-11.8,17.3-19.9c5.1-9.2,7-20.2,9.8-30.2c3-10.9,5.9-21.8,8.9-32.7c0.8-3,1.3-6.2,1.6-9.3
			c0.2-2.2,0.4-4.5,0.5-6.7c0.3-5.1,0.6-10.3,1.7-15.3c1.3-6.3,3.7-12.8,7.1-18.3c1.9-3.2,4.1-5.8,4.9-9.5c0.3-1.5-1.7-2.4-2.8-1.6
			c-7.4,6-13.9,14.2-20.5,21.1C-35.9-4.9-43.2,1.3-47.6,8.9c-5,8.6-9.2,17.8-14,26.6c-0.5,0.8-0.9,1.7-1.3,2.5
			c-1.6,3.1-3.2,6.2-4.6,9.3c-0.5,1.1-1,2.2-1.5,3.3c-1.7,3.8-3.2,7.7-4.6,11.6c-0.5,1.5-1,3.1-1.5,4.6
			c-5.5,18.1-7.8,37.6-15.8,54.8c2.6-9.6,4.7-19.5,5.8-29.6c2.4-21.1,1.2-41.7,0.2-62.7c-0.1-3.1,0.5-5.8,0.1-8.9
			c-0.8-4.9-0.4-9.9-1-14.9c-1.3-10.1,0.3-21,1.4-31.1c2.6-23.5,3.3-46.9,6.8-70.3c0.4-3-4-3.4-4.6-0.5c-0.8,3.6-4.4,8.2-6,11.7
			c-2.1,4.7-3.8,9.5-5,14.4C-96-59.3-96.5-47.7-98-36.6c-1.5,11.4,1.2,23,1.2,34.5C-96.7,8.4-98,18.9-97,29.4
			c1,10.2,1.8,20.1,0.8,30.2c-0.1,0.2-0.2,0.4-0.3,0.7c-0.2,1.7-0.5,3.3-0.7,5c-0.7,3.2-1.6,6.3-2.1,9.5c-0.6,4.1-1.1,8.1-2,12.1
			c-2.6,11.3-6.6,22.1-11.1,32.8c-3.6,8.6-7.8,17-9.4,26.3c-1,6.3,2,12.7,4,19.1c0.2,4.4,0.3,8.9,0.4,13.3c0,8.2-1.5,16.4-1.7,24.5
			c-0.3,9.2-0.4,17-3.5,26c-2.5,7.2-4.4,14-5.7,21.5c-2.5,14.5-5.4,28.8-7.8,43.2c-1.5,8.6-2.5,29.3,9.1,32.4c2.8,0.8,5.2-0.4,6-3.2
			c0.4-1.4-0.1-2.4-0.3-3.7c-0.2-1.4-1-2.5-1.1-4.2c-0.1-2.8,0.5-5.7,0.9-8.5c2.1-16.9,5.1-34.2,5.7-51.2c0.3-8.5,4.3-15.1,6.6-23.1
			c2.2-7.8,3.3-16.6,4.3-24.6c0.1-0.9,0.2-1.7,0.2-2.6c0.1-0.1,0.2-0.2,0.4-0.3c3.1-3,4.3-7.1,7.6-10.1c0.5-0.5,1-0.9,1.5-1.4
			c1.3-1.3,2.6-2.6,4-3.9c0.4-0.4,0.8-0.8,1.2-1.2c1-1,2.1-1.9,3.2-2.8c1.9-0.8,3.3-2,4.7-3.6c0.7-0.5,1.4-1,2-1.5
			c1-0.7,2-1.5,3.1-2.1c2.6-1.8,5.2-3.4,8.1-4.7c3-1.4,6.2-2.6,9.8-3.3c1-0.2,1.9-0.4,2.9-0.6c1.9-0.4,3.7-0.8,5.6-1.1
			c0.3-0.1,0.6-0.1,0.9-0.2c2.8-0.5,5.6-1,8.4-1.4c2-0.3,4.1-0.5,6.1-0.6c2.6-0.2,5.3-0.2,8,0c7.2,0.4,14.4,0.9,21.6,1
			c3.4,0.1,6.8,0.1,10.2,0.1c10-0.1,19.9,0.8,29.4-3.1c8.5-3.5,17.5-7.7,24.3-14c6.5-6.1,12.9-12.6,20-18.2c2.4-1.9,4.9-3.7,7.5-5.3
			c0.3-0.2,0.6-0.4,0.9-0.6c5.1-3.1,11.6-7.3,18-9.6c4-0.4,7.9-0.5,11.7-1.8c2.2-0.8,1.6-4.4-0.7-4.5c-3.3-0.1-6.4,0.4-9.2,1.3
			c-3,0.2-5.9,0.3-8.8,0.7c-6,0.9-11.9,1.9-17.9,2.5c-10.6,1-20.8,0.8-31.4,1.1c-6.8,0.2-13.5,1.8-20.2,2.5
			c-3.6,0.4-7.2,0.3-10.7,0.2c0,0,0,0,0,0c-2.1,0-4.3-0.1-6.5,0c-2.5,0.1-5,0.2-7.5,0.3c-6.7,0.3-13.5,1-20,2.1c-2,0.3-4,0.7-6,1.2
			c-0.1,0-0.3,0.1-0.4,0.1c-1.5,0.3-2.9,0.7-4.4,1.1c-2.7,0.8-5.4,1.7-7.9,2.7c-2,0.9-4,1.8-5.9,2.9c-2.6,1.5-5,3.3-7.3,5.4
			c-2.5,2.3-4.9,4.7-7.3,7.1c3.4-4.5,6.9-8.9,11-12.3c2.7-2.2,5.5-4.2,8.5-6.1c2.2-1.4,4.5-2.8,6.9-4c2.9-1.6,5.9-3,9-4.3
			c0.6-0.2,1.1-0.5,1.7-0.7c2.5-1.1,4.9-2.2,7.3-3.3c3.4-1.6,6.8-3.2,10.2-4.7c1.6-0.7,3.1-1.4,4.7-2.1c15.5-6.7,32.1-11.4,48-17.1
			c7.2-2.6,14.7-5.2,22.3-6.2c8.6-1.1,17.7-2.8,26.3-2c1,0.1,1.2-1.4,0.2-1.6c-15.8-2.7-31.6-0.7-46.8,4c-14,4.4-28.2,8.7-42,13.8
			c-3.1,1.1-6.1,2.3-9.2,3.5C1,98.7,0.3,99-0.5,99.3c-2.2,0.9-4.4,1.9-6.5,2.9c-4.2,1.9-8.3,3.9-12.5,5.8c-1.2,0.6-2.5,1.1-3.7,1.6
			c-0.4,0.2-0.8,0.4-1.3,0.6c-5.2,2.3-10.3,5-15.1,8.1c-2.5,1.6-4.9,3.3-7.2,5.1c-2.4,1.9-4.5,4.1-6.4,6.4c1.9-3.4,3.8-6.7,6-10
			c6.6-9.9,15.4-16.6,23.5-25c1.2-1.3,2.5-2.5,3.8-3.7c2.4-2.2,4.9-4.3,7.5-6.4c4.9-3.8,10-7.4,15.1-11.1
			c10.2-7.4,15-18.2,22.9-27.5c2.1-2.5,4.6-4.2,7.1-5.9c4.4,0.6,8.7,1.1,13,2.8c0.1,0,0.2,0.1,0.3,0.1c4.7,1.8,8.7,2.9,13.8,3
			C69,46.4,79,46.3,88,44.5c2.4-0.5,4.7-1.1,6.9-1.7c8.9-2.4,17.3-5.1,27.1-4.2c3.3,0.3,6.5,0.6,9.8,0.9c6.1,0.5,12.3,0.9,18.4,0.7
			c0.1,0,0.3,0,0.4,0C152.3,40.2,152.9,37.9,152,36.7z M128.1-122.6c0,2.1,0,3.6-0.1,4.1c-0.2,2.2-0.5,4.4-0.8,6.6
			c-0.2,1.6-0.4,3.2-0.7,4.8c-0.8,5.3-1.8,10.6-2.9,15.9c-1.8,8.9-5.6,16.3-9.5,24.4c-4.1,8.6-10.4,15.3-16.9,22.3
			c-5.4,5.8-10.2,12-16.1,17.3c-0.3,0.3-0.7,0.6-1,0.9c-1.6,1.4-3.2,2.7-4.8,4c-2.9,2.4-5.7,4.9-8.1,7.7c2.8-6,5.4-12.2,8.1-18.3
			c0.4-0.9,0.8-1.8,1.3-2.6c2-3.9,4.2-7.4,6.6-11c0.8-1.2,1.6-2.4,2.5-3.7c4-5.9,6.7-12.6,10.1-18.8c6.9-12.5,18.8-21.5,24.6-34.5
			c0,0,0-0.1,0-0.1c0.8-1.8,1.5-3.5,2.3-5.3C124.6-113.4,126.4-118,128.1-122.6z M90.5-110c8.4-4.7,16.7-9.3,24.9-14.7
			c3.8-2.5,7.3-5.1,10-8.9c0.7-0.9,1.3-1.9,1.8-2.9c-0.7,3.8-1.5,7.7-2.9,11.5c-2.4,6.3-4.8,12.6-7.5,18.8c-0.1,0.3-0.3,0.6-0.4,0.9
			c-1,2.2-2.2,4.2-3.5,6.2c-5.9,8.9-14.1,16.3-19.5,25.7c-2.9,5-5.3,10.4-8.1,15.5c-0.3,0.5-0.6,1-0.9,1.5c-1.9,3.3-4.1,6.4-6.2,9.6
			c-1.5,2.2-2.9,4.4-4.1,6.7C70.6-34.1,67.7-27.5,65-21c-1,2.3-1.9,4.8-2.9,7.2c-0.7,1.9-1.5,3.8-2.3,5.7c0.1-4.8-0.2-9.7-0.6-13.5
			c-0.2-1.6-0.3-3.2-0.3-4.8c-0.4-10.1,1.2-20,2.3-30.2C63.2-77.4,71.3-99.3,90.5-110z M-92,0.7c0.2-11.4-2.4-22.9-1.5-34.3
			c0.9-11,2.2-22.8,4.4-33.5c1.1-5.3,3-10.5,5.2-15.6c-2,18.9-3,37.9-5.1,56.8c-1.1,9.5-1.7,18.7-1.9,28.1c-0.2,8.4,1.8,17,1.3,25.4
			c-0.6,9.3,1.3,18.7,1.3,28.1c0,11.3-0.2,22.1-1.6,33.3c-0.7,5.9-1.1,12-2.1,17.8c-1.1,6.4-3.7,12.5-5.6,18.7
			c-1.8,5.9-3.8,11.9-5.5,17.9c-0.3,0.7-0.5,1.4-0.8,2.1c0-3.5-0.2-6.7,1.4-10.6c1.7-4.3,3.9-8.3,5.2-12.8
			c2.8-10.2,2.4-20.9,3.9-31.3c0.7-5,1.9-10.1,1.7-15.2c-0.2-4.5-0.6-8,0-12.5c1.4-9.8,1.3-19.6,0.1-29.5C-93,22.8-92.2,11.6-92,0.7
			z M-108,180.7c-0.1-0.8-0.1-1.7-0.2-2.5c0.1-1,0.3-2.1,0.4-3.1c0.1,0,0.1,0,0.1,0C-107.8,176.9-107.9,178.8-108,180.7z
			 M-102.8,125.1c-0.3,0.8-0.6,1.6-1,2.4c0.9-4.7,1.9-9.3,2.5-14.1c0.6-5.1,1.4-10.2,2.2-15.2C-99.7,107.3-99.7,116.5-102.8,125.1z
			 M-107,147.2c0.1,0.7,0.1,1.5,0.1,2.2c0,0.8,0.6,1.3,1.2,1.4c-0.4,1.3-0.8,2.5-1.2,3.8c-0.6,1.6-1,3.3-1.4,4.9
			C-108.2,155.5-107.7,151.3-107,147.2z M-116.8,155.7c-1.4-4.5-1.4-7.4-0.7-12.3c1.3-9.6,6.1-18.6,9.6-27.6
			c1.4-3.5,2.7-7.1,3.9-10.7c-1,6.6-1.2,13.3-2.5,19.8c-0.4,2.2-1.3,4.3-1.8,6.4c-0.9,3.7-0.4,7.7-1.1,11.5
			c-0.8,5-1.6,10.1-2.2,15.2c-0.2-0.2-0.4-0.3-0.8-0.4c-0.6-0.1-1.1-0.2-1.6-0.3c0-0.1-0.1-0.2-0.2-0.3
			C-115.1,156.4-115.7,155.7-116.8,155.7z M-112.1,228.7c-1.6,6.7-5.4,12.7-6.7,19.5c-1.3,7.5-1.1,15.5-1.9,23.1
			c-0.8,7.5-1.6,15-2.5,22.5c-0.8,7.2-3.1,15.2-2.6,22.5c0,0,1.1,4,1.2,4c-2.2,5.2-6.4-8.5-6.5-9.1c-1.1-8,0.2-15.1,1.5-22.9
			c2.2-13.4,4.3-27,7.1-40.4c1.7-8.4,4.8-16.1,6.9-24.4c2-7.8,0.7-15.3,1.3-23.1c0.6-7.8,1.1-15.6,0.7-23.4c0-0.9-0.1-1.8-0.1-2.6
			c0.2-0.2,0.3-0.4,0.3-0.8c0.1-4.1-0.6-8.5-1.5-12.5c-0.1-0.5-0.3-0.9-0.4-1.4c0.9,0.3,1.8,0.6,2.7,0.7c0.3,0.1,0.6,0,0.8-0.2
			c-0.7,7.3-0.9,14.6,0,21.9c0,0.4,0.1,0.8,0.2,1.2c-0.1,0.4-0.1,0.9-0.2,1.3c-0.1,0.5,0.2,1,0.6,1.2c1.2,6.2,3.3,12,2.9,18.8
			C-108.9,212.4-110.4,221.2-112.1,228.7z M-100.3,149.4c0.1-0.4,0.3-0.7,0.4-1c0.2-0.6,0.5-1.2,0.7-1.7c1.4-2.9,3.3-5.5,5.4-8
			c1.8-2.2,3.7-4.2,5.6-6.3c0.6-0.7,1.2-1.4,1.8-2c1.1-1.3,2.2-2.6,3.2-4c1.5-1.9,2.9-3.9,4.4-5.9c0.4-0.5,0.7-1,1.1-1.5
			c1.4-1.9,2.8-3.7,4.3-5.5c0.2-0.3,0.5-0.6,0.7-0.9c1.4-1.7,2.7-3.5,3.9-5.4c1.8-2.9,3.4-5.9,4.8-9.2c0.5-1.1,1-2.2,1.5-3.3
			c2.6-5.5,5.6-10.8,8.2-16.3c1.4-3,2.8-6.1,4-9.2c0,0,0-0.1,0.1-0.1c0.4-1.1,0.9-2.2,1.3-3.3c0,0,0,0,0,0
			c3.5-9.2,6.1-18.8,6.9-28.7c0.1-0.8-1.1-0.9-1.2-0.1c-2.1,14.1-7.9,27.6-14.1,40.3c-1.6,3.3-3.2,6.6-4.8,9.9
			c-1.8,3.7-3.7,7.4-5.7,11c-1.3,2.4-2.7,4.7-4.2,6.9c-1.6,2.5-3.4,4.8-5.3,7.1c-0.1,0.1-0.2,0.3-0.4,0.4c-0.6,0.8-1.3,1.5-2,2.2
			c-0.9,1-1.8,2.1-2.6,3.1c-0.2,0.3-0.5,0.6-0.7,1c-2,2.7-3.8,5.6-5.9,8.2c-0.4,0.5-0.9,1.1-1.4,1.6c-0.6,0.6-1.2,1.3-1.7,1.9
			c0.5-0.7,0.9-1.4,1.3-2.2c6.3-11.5,9.5-24,12.5-36.5c0,0,0,0,0,0c1.7-7.1,3.3-14.3,5.3-21.3c1.2-4,2.5-7.8,4.1-11.6
			c0.6-1.4,1.1-2.8,1.7-4.2c1.3-3.1,2.8-6.1,4.3-9.2c4.9-10,10.4-19.7,15.3-29.7C-43,6.7-35.7,0-28.8-7.4c2.6-2.8,5.4-5.5,8.1-8.2
			c-0.9,2.5-1.7,5.1-2.8,7.6c-2.9,6.9-9.9,13.4-11.2,20.8c-0.1,0.4,0.6,0.7,0.8,0.3C-30.4,7.3-25.4,2.2-22-3.7
			c0,0.2-0.1,0.3-0.1,0.5c-1.6,7.4-2,15-3.1,22.4c-0.5,3.7-1.2,7.4-2.3,11.1c-0.2,0.5-0.3,1.1-0.5,1.6c-3.1,10.6-6.3,21.3-9.2,32
			c-2.9,10.8-5.7,21.8-12.5,30.9c-1.9,2.5-4,4.7-6.3,6.8c-1.4,1.4-2.8,2.7-4.2,4.1c0,0-0.1,0.1-0.1,0.1c-1.4,1.4-2.7,2.9-4,4.5
			c-1.6,2-3.2,4-4.8,6c-0.4,0.4-0.7,0.9-1,1.3c-1.1,1.4-2.3,2.9-3.4,4.3c-1.8,2.3-3.5,4.6-5.4,6.7c-0.1,0.1-0.1,0.2-0.2,0.3
			c-0.3,0.4-0.7,0.8-1.1,1.2c-1.3,1.4-2.6,2.6-4,3.9c-1.8,1.7-3.6,3.3-5.2,5.2c-1,1.2-2,2.3-3.1,3.5c-1.8,2-3.6,4.1-5.4,6.2
			c-1.5,1.9-2.9,3.8-4.1,5.8C-101.4,152.8-100.9,151.1-100.3,149.4z M-70.2,153.5c0.5-0.6,0.9-1.3,1.4-1.9c-0.2,0.4-0.4,0.7-0.7,1.1
			c-1.1,1.7-2.1,3.4-3.2,5.2c-1.9,1.9-3.8,3.8-5.7,5.8C-75.6,160.3-72.8,157-70.2,153.5z M-42,134.5c2.8-2,5.8-3.5,9-4.8
			c1.8-0.7,3.6-1.3,5.5-1.9c1.9-0.6,3.8-1,5.8-1.5c3.3-0.7,6.6-1.2,9.8-1.7c1-0.1,2.1-0.3,3.1-0.4l0,0c5.1-0.6,10.3-0.8,15.4-0.9
			c5-0.1,9.9-0.1,14.9-0.1c11.2,0.1,22.1-3,33.4-2.5c10,0.4,20-0.3,30-1.6c2.4-0.3,4.9-0.7,7.3-1.1c-0.5,0.3-1,0.6-1.6,0.8
			c-4.3,2.3-8.4,4.9-12.4,7.7c-2.3,1.7-4.5,3.4-6.7,5.2c-2.8,2.2-5.5,4.6-8.1,7c-3.9,3.6-7.4,7.6-11.7,10.8
			c-1.9,1.4-3.9,2.7-5.9,3.9c0,0,0,0-0.1,0c-3.7,2.1-7.7,3.9-11.7,5.7c-11.2,5-23.9,3.9-35.9,3.8c-1.7,0-3.4-0.1-5.1-0.1
			c-9.2-0.4-18.4-1.6-27.6-1.4c-0.7,0-1.3,0-2,0.1c-3.3,0.2-6.7,0.6-10.2,1.1c0,0,0,0,0,0c-1.8,0.3-3.7,0.7-5.5,1.1
			c-4.1,0.9-8.1,2-12,3.2c-0.6,0.2-1.3,0.4-1.9,0.6c-1.2,0.4-2.4,0.9-3.5,1.4c0.1-0.1,0.3-0.3,0.4-0.4c3.6-3.6,7.1-6.6,11.5-8.7
			c1.4-0.7,3-1.3,4.6-1.7c2-0.5,3.9-0.8,5.8-1c4.3-0.3,8.5,0,13-0.2c0.8,0,1.6-0.1,2.4-0.2c5.1-0.6,10-2.3,15.1-2.8
			c6.5-0.6,13-0.8,19.5-2c10.5-1.8,19.8-5.7,28.1-12.4c0.5-0.4-0.1-1.2-0.7-0.8c-11.1,7.6-23.1,10.4-36.5,11
			c-6.5,0.3-12.8,0.4-19.1,1.7c-0.5,0.1-1,0.2-1.5,0.3c-2.4,0.4-4.7,0.6-7,0.7l0,0c-3.2,0.2-6.4,0.1-9.8,0.2c-0.3,0-0.6,0-1,0
			c-2.4,0-4.7,0.3-6.9,0.8c-3.2,0.6-6.2,1.7-9,3.1c-3.5,1.8-6.8,4.1-9.8,7c-1.5,1.4-3.1,2.7-4.8,4c0.7-0.8,1.5-1.6,2.3-2.4
			c0.5-0.5,0.9-0.9,1.4-1.4c2.5-2.6,5.1-5.2,7.8-7.8c6.7-6.2,12.4-13.4,19.3-19.3C-43.9,135.8-43,135.1-42,134.5z M13.6,57.4
			c-3.5,5-7.2,9.2-12.1,12.9c-3.5,2.6-7.2,4.4-10.4,7.2c-0.7,0.6-1.3,1.1-2,1.7c-2.2,1.7-4.5,3.3-6.7,5c-0.6,0.4-1.1,0.9-1.7,1.3
			c-4.2,3.4-7.8,7.6-11.6,11.3c-3.2,3.1-6.4,6-9.5,9c-2.3,2.2-4.5,4.6-6.6,7.3c-6.3,8.2-10.2,18.5-17,26.2
			c-5.6,6.3-9.9,13.5-15.3,19.9c-2.1,2.5-4.1,5.1-6.1,7.7c-0.3,0.4-0.6,0.8-0.9,1.2c-1.3,1.8-2.5,3.5-3.8,5.3c-0.7,1-1.4,2-2.1,3
			c-1.2,1.7-2.3,3.4-3.5,5.2c-0.5,0.8-1.1,1.6-1.6,2.4c-2.2,3.2-4.4,6.3-6.7,9.4c0.9-6.1,1.9-12.1,4.9-17.8c0.6-1.2,1.2-2.4,1.9-3.6
			c0.9-1.7,1.9-3.4,2.9-5.1c1.9-3.1,3.9-6.1,6.2-8.9c0.5-0.6,1-1.2,1.6-1.8c1.5-1.7,3.1-3.5,4.7-5.2c0.8-0.9,1.7-1.8,2.5-2.7
			c2.9-3.2,5.9-6.4,8.9-9.5c1.8-1.9,3.4-3.9,5-5.9c2.5-3.3,4.8-6.8,7.3-10.2c4.4-5.9,9.2-11.5,14.3-16.9c2.3-2.4,4.6-4.8,7-7.1
			c6.5-6.4,13.4-12.5,20.3-18.4c2.2-1.9,4.5-3.8,6.7-5.7c3.9-3.3,7.8-6.5,11.7-9.7c5.3-4.4,10.6-8.8,15.7-13.3
			C16.3,53.4,15,55.5,13.6,57.4z M33.6,17.3c0.1-1.7,0.1-3.5-0.1-5.2C32.3,3.3,30-5.2,28.4-13.9c0-0.2-0.2-0.5-0.4-0.6
			c-0.4-0.1-0.7-0.2-1.1-0.3c-0.8-0.2-1.3,0.9-0.5,1.2c2.2,0.9,1.9,9.2,2.1,11.2c0.4,4.4,0.5,8.8,0.7,13.2c0.2,4.7-1,9.7-1.8,14.6
			c-0.5-4.1-1.3-8.2-1.6-12.4c-0.3-4.9,0.3-9.2-1-14c-1.4-5.4-5-11.1-5.6-16.6c-1.2-12.5,1.9-26.2,3.4-38.7c0.6-5.1,2-10,3.7-14.8
			c-0.1,5,0.2,10,1,15.1c1.6,10.8,6.6,20.7,8.2,31.5c0.9,5.9,1.1,11.7,0.2,17.5c-0.8,5.1-0.5,10-0.9,15.1
			C34.5,11.3,34.1,14.3,33.6,17.3z M117.5,35c-0.6,0-1.3,0-1.9,0c-9,0.2-17.1,3.3-25.8,5.3c-7.4,1.7-15.4,1.8-23.2,1.7
			c-2.1,0-4.1-0.1-6.1-0.2c-5.7-0.2-9.9-2.2-14.9-3.9c-0.7-0.2-1.4-0.5-2.1-0.7c-0.7-0.2-1.5-0.4-2.2-0.5c1.5-0.3,2.9-0.5,4.3-0.7
			c1.3-0.2,2.5-0.3,3.8-0.4c0.1,0,0.2,0,0.3,0c1.5-0.1,3-0.2,4.6-0.2c1.5,0,3,0,4.6-0.1c0,0,0.1,0,0.1,0c2.3-0.1,4.7-0.3,7-0.4
			c1.1-0.1,2.2-0.3,3.3-0.6c2.3-0.6,4.7-1.5,7-1.7c0.3,0,0.7,0,1,0c0.3,0,0.5-0.3,0.4-0.5c0-0.1-0.1-0.2-0.3-0.2
			c-2.9-0.5-4.6,0.1-7.2,0.5c-0.3,0.1-0.7,0.1-1,0.2c-2.3,0.3-5.2,0.3-8.1,0.1c-0.5,0-1.1-0.1-1.6-0.1c-1.8-0.1-3.4-0.3-4.8-0.4
			c-1.5-0.2-2.9-0.2-4.3-0.2c-0.5,0-1,0-1.5,0c-1.3,0-2.6,0.1-3.9,0.2c-0.8,0-1.5,0.1-2.3,0.2c0,0,0,0,0,0c0.7-0.5,1.4-0.9,2.1-1.3
			c0.6-0.4,1.2-0.7,1.8-1.1c0.6-0.3,1.2-0.7,1.9-1c0.9-0.4,1.7-0.9,2.6-1.3c1.6-0.8,3.2-1.5,4.9-2.1c0.1-0.1,0.3-0.1,0.4-0.2
			c1.5-0.6,3-1.1,4.6-1.6c3.2-0.9,6.4-1.6,9.6-2c2-0.2,3.9-0.3,5.9-0.3c1.5,0,3,0.1,4.5,0.3c12,1.3,24.4,5.7,36,9
			c5.1,1.4,10.2,2.8,15.3,4.1c2.4,0.6,4.9,1.2,7.3,1.8c-1.1,0-2.3-0.1-3.4-0.2C129.8,36,123.6,35.1,117.5,35z"/>
	</g>
</g>
</svg>
